 Channel       a       v       j       k       cha_nrg 
        1       1       0       1       1   0.2848712E+00
        2       1       0       3       1   0.3576187E+00
        3       1       0       3       2   0.3576187E+00
        4       1       0       3       3   0.3576187E+00
        5       1       0       5       1   0.4858414E+00
        6       1       0       5       2   0.4858414E+00
        7       1       0       5       3   0.4858414E+00
        8       1       0       5       4   0.4858414E+00
        9       1       0       5       5   0.4858414E+00
       10       1       0       7       1   0.6652011E+00
       11       1       0       7       2   0.6652011E+00
       12       1       0       7       3   0.6652011E+00
       13       1       0       7       4   0.6652011E+00
       14       1       0       7       5   0.6652011E+00
       15       1       0       7       6   0.6652011E+00
       16       1       0       7       7   0.6652011E+00
       17       1       0       9       1   0.8900749E+00
       18       1       0       9       2   0.8900749E+00
       19       1       0       9       3   0.8900749E+00
       20       1       0       9       4   0.8900749E+00
       21       1       0       9       5   0.8900749E+00
       22       1       0       9       6   0.8900749E+00
       23       1       0       9       7   0.8900749E+00
       24       1       0       9       8   0.8900749E+00
       25       1       0      11       1   0.1154071E+01
       26       1       0      11       2   0.1154071E+01
       27       1       0      11       3   0.1154071E+01
       28       1       0      11       4   0.1154071E+01
       29       1       0      11       5   0.1154071E+01
       30       1       0      11       6   0.1154071E+01
       31       1       0      11       7   0.1154071E+01
       32       1       0      11       8   0.1154071E+01
       33       1       0      13       1   0.1450502E+01
       34       1       0      13       2   0.1450502E+01
       35       1       0      13       3   0.1450502E+01
       36       1       0      13       4   0.1450502E+01
       37       1       0      13       5   0.1450502E+01
       38       1       0      13       6   0.1450502E+01
       39       1       0      13       7   0.1450502E+01
       40       1       0      13       8   0.1450502E+01
       41       1       0      15       1   0.1772762E+01
       42       1       0      15       2   0.1772762E+01
       43       1       0      15       3   0.1772762E+01
       44       1       0      15       4   0.1772762E+01
       45       1       0      15       5   0.1772762E+01
       46       1       0      15       6   0.1772762E+01
       47       1       0      15       7   0.1772762E+01
       48       1       0      15       8   0.1772762E+01
       49       1       0      17       1   0.2114580E+01
       50       1       0      17       2   0.2114580E+01
       51       1       0      17       3   0.2114580E+01
       52       1       0      17       4   0.2114580E+01
       53       1       0      17       5   0.2114580E+01
       54       1       0      17       6   0.2114580E+01
       55       1       0      17       7   0.2114580E+01
       56       1       0      17       8   0.2114580E+01
       57       1       1       1       1   0.8000498E+00
       58       1       1       3       1   0.8691571E+00
       59       1       1       3       2   0.8691571E+00
       60       1       1       3       3   0.8691571E+00
       61       1       1       5       1   0.9909192E+00
       62       1       1       5       2   0.9909192E+00
       63       1       1       5       3   0.9909192E+00
       64       1       1       5       4   0.9909192E+00
       65       1       1       5       5   0.9909192E+00
       66       1       1       7       1   0.1161149E+01
       67       1       1       7       2   0.1161149E+01
       68       1       1       7       3   0.1161149E+01
       69       1       1       7       4   0.1161149E+01
       70       1       1       7       5   0.1161149E+01
       71       1       1       7       6   0.1161149E+01
       72       1       1       7       7   0.1161149E+01
       73       1       1       9       1   0.1374425E+01
       74       1       1       9       2   0.1374425E+01
       75       1       1       9       3   0.1374425E+01
       76       1       1       9       4   0.1374425E+01
       77       1       1       9       5   0.1374425E+01
       78       1       1       9       6   0.1374425E+01
       79       1       1       9       7   0.1374425E+01
       80       1       1       9       8   0.1374425E+01
       81       1       1      11       1   0.1624592E+01
       82       1       1      11       2   0.1624592E+01
       83       1       1      11       3   0.1624592E+01
       84       1       1      11       4   0.1624592E+01
       85       1       1      11       5   0.1624592E+01
       86       1       1      11       6   0.1624592E+01
       87       1       1      11       7   0.1624592E+01
       88       1       1      11       8   0.1624592E+01
       89       1       1      13       1   0.1905213E+01
       90       1       1      13       2   0.1905213E+01
       91       1       1      13       3   0.1905213E+01
       92       1       1      13       4   0.1905213E+01
       93       1       1      13       5   0.1905213E+01
       94       1       1      13       6   0.1905213E+01
       95       1       1      13       7   0.1905213E+01
       96       1       1      13       8   0.1905213E+01
       97       1       1      15       1   0.2209922E+01
       98       1       1      15       2   0.2209922E+01
       99       1       1      15       3   0.2209922E+01
      100       1       1      15       4   0.2209922E+01
      101       1       1      15       5   0.2209922E+01
      102       1       1      15       6   0.2209922E+01
      103       1       1      15       7   0.2209922E+01
      104       1       1      15       8   0.2209922E+01
      105       1       2       1       1   0.1286052E+01
      106       1       2       3       1   0.1351598E+01
      107       1       2       3       2   0.1351598E+01
      108       1       2       3       3   0.1351598E+01
      109       1       2       5       1   0.1467037E+01
      110       1       2       5       2   0.1467037E+01
      111       1       2       5       3   0.1467037E+01
      112       1       2       5       4   0.1467037E+01
      113       1       2       5       5   0.1467037E+01
      114       1       2       7       1   0.1628324E+01
      115       1       2       7       2   0.1628324E+01
      116       1       2       7       3   0.1628324E+01
      117       1       2       7       4   0.1628324E+01
      118       1       2       7       5   0.1628324E+01
      119       1       2       7       6   0.1628324E+01
      120       1       2       7       7   0.1628324E+01
      121       1       2       9       1   0.1830224E+01
      122       1       2       9       2   0.1830224E+01
      123       1       2       9       3   0.1830224E+01
      124       1       2       9       4   0.1830224E+01
      125       1       2       9       5   0.1830224E+01
      126       1       2       9       6   0.1830224E+01
      127       1       2       9       7   0.1830224E+01
      128       1       2       9       8   0.1830224E+01
      129       1       2      11       1   0.2066797E+01
      130       1       2      11       2   0.2066797E+01
      131       1       2      11       3   0.2066797E+01
      132       1       2      11       4   0.2066797E+01
      133       1       2      11       5   0.2066797E+01
      134       1       2      11       6   0.2066797E+01
      135       1       2      11       7   0.2066797E+01
      136       1       2      11       8   0.2066797E+01
      137       1       2      13       1   0.2331829E+01
      138       1       2      13       2   0.2331829E+01
      139       1       2      13       3   0.2331829E+01
      140       1       2      13       4   0.2331829E+01
      141       1       2      13       5   0.2331829E+01
      142       1       2      13       6   0.2331829E+01
      143       1       2      13       7   0.2331829E+01
      144       1       2      13       8   0.2331829E+01
      145       1       3       1       1   0.1743492E+01
      146       1       3       3       1   0.1805530E+01
      147       1       3       3       2   0.1805530E+01
      148       1       3       3       3   0.1805530E+01
      149       1       3       5       1   0.1914737E+01
      150       1       3       5       2   0.1914737E+01
      151       1       3       5       3   0.1914737E+01
      152       1       3       5       4   0.1914737E+01
      153       1       3       5       5   0.1914737E+01
      154       1       3       7       1   0.2067198E+01
      155       1       3       7       2   0.2067198E+01
      156       1       3       7       3   0.2067198E+01
      157       1       3       7       4   0.2067198E+01
      158       1       3       7       5   0.2067198E+01
      159       1       3       7       6   0.2067198E+01
      160       1       3       7       7   0.2067198E+01
      161       1       3       9       1   0.2257849E+01
      162       1       3       9       2   0.2257849E+01
      163       1       3       9       3   0.2257849E+01
      164       1       3       9       4   0.2257849E+01
      165       1       3       9       5   0.2257849E+01
      166       1       3       9       6   0.2257849E+01
      167       1       3       9       7   0.2257849E+01
      168       1       3       9       8   0.2257849E+01
      169       1       3      11       1   0.2480944E+01
      170       1       3      11       2   0.2480944E+01
      171       1       3      11       3   0.2480944E+01
      172       1       3      11       4   0.2480944E+01
      173       1       3      11       5   0.2480944E+01
      174       1       3      11       6   0.2480944E+01
      175       1       3      11       7   0.2480944E+01
      176       1       3      11       8   0.2480944E+01
      177       1       4       1       1   0.2172748E+01
      178       1       4       3       1   0.2231304E+01
      179       1       4       3       2   0.2231304E+01
      180       1       4       3       3   0.2231304E+01
      181       1       4       5       1   0.2334316E+01
      182       1       4       5       2   0.2334316E+01
      183       1       4       5       3   0.2334316E+01
      184       1       4       5       4   0.2334316E+01
      185       1       4       5       5   0.2334316E+01
      186       1       4       7       1   0.2477990E+01
      187       1       4       7       2   0.2477990E+01
      188       1       4       7       3   0.2477990E+01
      189       1       4       7       4   0.2477990E+01
      190       1       4       7       5   0.2477990E+01
      191       1       4       7       6   0.2477990E+01
      192       1       4       7       7   0.2477990E+01
      193       2       0       1       1   0.2848712E+00
      194       2       0       2       1   0.3141031E+00
      195       2       0       2       2   0.3141031E+00
      196       2       0       3       1   0.3576187E+00
      197       2       0       3       2   0.3576187E+00
      198       2       0       3       3   0.3576187E+00
      199       2       0       4       1   0.4150307E+00
      200       2       0       4       2   0.4150307E+00
      201       2       0       4       3   0.4150307E+00
      202       2       0       4       4   0.4150307E+00
      203       2       0       5       1   0.4858414E+00
      204       2       0       5       2   0.4858414E+00
      205       2       0       5       3   0.4858414E+00
      206       2       0       5       4   0.4858414E+00
      207       2       0       5       5   0.4858414E+00
      208       2       0       6       1   0.5694565E+00
      209       2       0       6       2   0.5694565E+00
      210       2       0       6       3   0.5694565E+00
      211       2       0       6       4   0.5694565E+00
      212       2       0       6       5   0.5694565E+00
      213       2       0       6       6   0.5694565E+00
      214       2       0       7       1   0.6652011E+00
      215       2       0       7       2   0.6652011E+00
      216       2       0       7       3   0.6652011E+00
      217       2       0       7       4   0.6652011E+00
      218       2       0       7       5   0.6652011E+00
      219       2       0       7       6   0.6652011E+00
      220       2       0       7       7   0.6652011E+00
      221       2       0       8       1   0.7723361E+00
      222       2       0       8       2   0.7723361E+00
      223       2       0       8       3   0.7723361E+00
      224       2       0       8       4   0.7723361E+00
      225       2       0       8       5   0.7723361E+00
      226       2       0       8       6   0.7723361E+00
      227       2       0       8       7   0.7723361E+00
      228       2       0       8       8   0.7723361E+00
      229       2       0       9       1   0.8900749E+00
      230       2       0       9       2   0.8900749E+00
      231       2       0       9       3   0.8900749E+00
      232       2       0       9       4   0.8900749E+00
      233       2       0       9       5   0.8900749E+00
      234       2       0       9       6   0.8900749E+00
      235       2       0       9       7   0.8900749E+00
      236       2       0       9       8   0.8900749E+00
      237       2       0      10       1   0.1017599E+01
      238       2       0      10       2   0.1017599E+01
      239       2       0      10       3   0.1017599E+01
      240       2       0      10       4   0.1017599E+01
      241       2       0      10       5   0.1017599E+01
      242       2       0      10       6   0.1017599E+01
      243       2       0      10       7   0.1017599E+01
      244       2       0      10       8   0.1017599E+01
      245       2       0      11       1   0.1154071E+01
      246       2       0      11       2   0.1154071E+01
      247       2       0      11       3   0.1154071E+01
      248       2       0      11       4   0.1154071E+01
      249       2       0      11       5   0.1154071E+01
      250       2       0      11       6   0.1154071E+01
      251       2       0      11       7   0.1154071E+01
      252       2       0      11       8   0.1154071E+01
      253       2       0      12       1   0.1298651E+01
      254       2       0      12       2   0.1298651E+01
      255       2       0      12       3   0.1298651E+01
      256       2       0      12       4   0.1298651E+01
      257       2       0      12       5   0.1298651E+01
      258       2       0      12       6   0.1298651E+01
      259       2       0      12       7   0.1298651E+01
      260       2       0      12       8   0.1298651E+01
      261       2       0      13       1   0.1450502E+01
      262       2       0      13       2   0.1450502E+01
      263       2       0      13       3   0.1450502E+01
      264       2       0      13       4   0.1450502E+01
      265       2       0      13       5   0.1450502E+01
      266       2       0      13       6   0.1450502E+01
      267       2       0      13       7   0.1450502E+01
      268       2       0      13       8   0.1450502E+01
      269       2       0      14       1   0.1608806E+01
      270       2       0      14       2   0.1608806E+01
      271       2       0      14       3   0.1608806E+01
      272       2       0      14       4   0.1608806E+01
      273       2       0      14       5   0.1608806E+01
      274       2       0      14       6   0.1608806E+01
      275       2       0      14       7   0.1608806E+01
      276       2       0      14       8   0.1608806E+01
      277       2       0      15       1   0.1772762E+01
      278       2       0      15       2   0.1772762E+01
      279       2       0      15       3   0.1772762E+01
      280       2       0      15       4   0.1772762E+01
      281       2       0      15       5   0.1772762E+01
      282       2       0      15       6   0.1772762E+01
      283       2       0      15       7   0.1772762E+01
      284       2       0      15       8   0.1772762E+01
      285       2       0      16       1   0.1941600E+01
      286       2       0      16       2   0.1941600E+01
      287       2       0      16       3   0.1941600E+01
      288       2       0      16       4   0.1941600E+01
      289       2       0      16       5   0.1941600E+01
      290       2       0      16       6   0.1941600E+01
      291       2       0      16       7   0.1941600E+01
      292       2       0      16       8   0.1941600E+01
      293       2       0      17       1   0.2114580E+01
      294       2       0      17       2   0.2114580E+01
      295       2       0      17       3   0.2114580E+01
      296       2       0      17       4   0.2114580E+01
      297       2       0      17       5   0.2114580E+01
      298       2       0      17       6   0.2114580E+01
      299       2       0      17       7   0.2114580E+01
      300       2       0      17       8   0.2114580E+01
      301       2       0      18       1   0.2290996E+01
      302       2       0      18       2   0.2290996E+01
      303       2       0      18       3   0.2290996E+01
      304       2       0      18       4   0.2290996E+01
      305       2       0      18       5   0.2290996E+01
      306       2       0      18       6   0.2290996E+01
      307       2       0      18       7   0.2290996E+01
      308       2       0      18       8   0.2290996E+01
      309       2       1       1       1   0.8000498E+00
      310       2       1       2       1   0.8278212E+00
      311       2       1       2       2   0.8278212E+00
      312       2       1       3       1   0.8691571E+00
      313       2       1       3       2   0.8691571E+00
      314       2       1       3       3   0.8691571E+00
      315       2       1       4       1   0.9236833E+00
      316       2       1       4       2   0.9236833E+00
      317       2       1       4       3   0.9236833E+00
      318       2       1       4       4   0.9236833E+00
      319       2       1       5       1   0.9909192E+00
      320       2       1       5       2   0.9909192E+00
      321       2       1       5       3   0.9909192E+00
      322       2       1       5       4   0.9909192E+00
      323       2       1       5       5   0.9909192E+00
      324       2       1       6       1   0.1070291E+01
      325       2       1       6       2   0.1070291E+01
      326       2       1       6       3   0.1070291E+01
      327       2       1       6       4   0.1070291E+01
      328       2       1       6       5   0.1070291E+01
      329       2       1       6       6   0.1070291E+01
      330       2       1       7       1   0.1161149E+01
      331       2       1       7       2   0.1161149E+01
      332       2       1       7       3   0.1161149E+01
      333       2       1       7       4   0.1161149E+01
      334       2       1       7       5   0.1161149E+01
      335       2       1       7       6   0.1161149E+01
      336       2       1       7       7   0.1161149E+01
      337       2       1       8       1   0.1262779E+01
      338       2       1       8       2   0.1262779E+01
      339       2       1       8       3   0.1262779E+01
      340       2       1       8       4   0.1262779E+01
      341       2       1       8       5   0.1262779E+01
      342       2       1       8       6   0.1262779E+01
      343       2       1       8       7   0.1262779E+01
      344       2       1       8       8   0.1262779E+01
      345       2       1       9       1   0.1374425E+01
      346       2       1       9       2   0.1374425E+01
      347       2       1       9       3   0.1374425E+01
      348       2       1       9       4   0.1374425E+01
      349       2       1       9       5   0.1374425E+01
      350       2       1       9       6   0.1374425E+01
      351       2       1       9       7   0.1374425E+01
      352       2       1       9       8   0.1374425E+01
      353       2       1      10       1   0.1495298E+01
      354       2       1      10       2   0.1495298E+01
      355       2       1      10       3   0.1495298E+01
      356       2       1      10       4   0.1495298E+01
      357       2       1      10       5   0.1495298E+01
      358       2       1      10       6   0.1495298E+01
      359       2       1      10       7   0.1495298E+01
      360       2       1      10       8   0.1495298E+01
      361       2       1      11       1   0.1624592E+01
      362       2       1      11       2   0.1624592E+01
      363       2       1      11       3   0.1624592E+01
      364       2       1      11       4   0.1624592E+01
      365       2       1      11       5   0.1624592E+01
      366       2       1      11       6   0.1624592E+01
      367       2       1      11       7   0.1624592E+01
      368       2       1      11       8   0.1624592E+01
      369       2       1      12       1   0.1761499E+01
      370       2       1      12       2   0.1761499E+01
      371       2       1      12       3   0.1761499E+01
      372       2       1      12       4   0.1761499E+01
      373       2       1      12       5   0.1761499E+01
      374       2       1      12       6   0.1761499E+01
      375       2       1      12       7   0.1761499E+01
      376       2       1      12       8   0.1761499E+01
      377       2       1      13       1   0.1905213E+01
      378       2       1      13       2   0.1905213E+01
      379       2       1      13       3   0.1905213E+01
      380       2       1      13       4   0.1905213E+01
      381       2       1      13       5   0.1905213E+01
      382       2       1      13       6   0.1905213E+01
      383       2       1      13       7   0.1905213E+01
      384       2       1      13       8   0.1905213E+01
      385       2       1      14       1   0.2054944E+01
      386       2       1      14       2   0.2054944E+01
      387       2       1      14       3   0.2054944E+01
      388       2       1      14       4   0.2054944E+01
      389       2       1      14       5   0.2054944E+01
      390       2       1      14       6   0.2054944E+01
      391       2       1      14       7   0.2054944E+01
      392       2       1      14       8   0.2054944E+01
      393       2       1      15       1   0.2209922E+01
      394       2       1      15       2   0.2209922E+01
      395       2       1      15       3   0.2209922E+01
      396       2       1      15       4   0.2209922E+01
      397       2       1      15       5   0.2209922E+01
      398       2       1      15       6   0.2209922E+01
      399       2       1      15       7   0.2209922E+01
      400       2       1      15       8   0.2209922E+01
      401       2       1      16       1   0.2369400E+01
      402       2       1      16       2   0.2369400E+01
      403       2       1      16       3   0.2369400E+01
      404       2       1      16       4   0.2369400E+01
      405       2       1      16       5   0.2369400E+01
      406       2       1      16       6   0.2369400E+01
      407       2       1      16       7   0.2369400E+01
      408       2       1      16       8   0.2369400E+01
      409       2       2       1       1   0.1286052E+01
      410       2       2       2       1   0.1312395E+01
      411       2       2       2       2   0.1312395E+01
      412       2       2       3       1   0.1351598E+01
      413       2       2       3       2   0.1351598E+01
      414       2       2       3       3   0.1351598E+01
      415       2       2       4       1   0.1403301E+01
      416       2       2       4       2   0.1403301E+01
      417       2       2       4       3   0.1403301E+01
      418       2       2       4       4   0.1403301E+01
      419       2       2       5       1   0.1467037E+01
      420       2       2       5       2   0.1467037E+01
      421       2       2       5       3   0.1467037E+01
      422       2       2       5       4   0.1467037E+01
      423       2       2       5       5   0.1467037E+01
      424       2       2       6       1   0.1542255E+01
      425       2       2       6       2   0.1542255E+01
      426       2       2       6       3   0.1542255E+01
      427       2       2       6       4   0.1542255E+01
      428       2       2       6       5   0.1542255E+01
      429       2       2       6       6   0.1542255E+01
      430       2       2       7       1   0.1628324E+01
      431       2       2       7       2   0.1628324E+01
      432       2       2       7       3   0.1628324E+01
      433       2       2       7       4   0.1628324E+01
      434       2       2       7       5   0.1628324E+01
      435       2       2       7       6   0.1628324E+01
      436       2       2       7       7   0.1628324E+01
      437       2       2       8       1   0.1724557E+01
      438       2       2       8       2   0.1724557E+01
      439       2       2       8       3   0.1724557E+01
      440       2       2       8       4   0.1724557E+01
      441       2       2       8       5   0.1724557E+01
      442       2       2       8       6   0.1724557E+01
      443       2       2       8       7   0.1724557E+01
      444       2       2       8       8   0.1724557E+01
      445       2       2       9       1   0.1830224E+01
      446       2       2       9       2   0.1830224E+01
      447       2       2       9       3   0.1830224E+01
      448       2       2       9       4   0.1830224E+01
      449       2       2       9       5   0.1830224E+01
      450       2       2       9       6   0.1830224E+01
      451       2       2       9       7   0.1830224E+01
      452       2       2       9       8   0.1830224E+01
      453       2       2      10       1   0.1944563E+01
      454       2       2      10       2   0.1944563E+01
      455       2       2      10       3   0.1944563E+01
      456       2       2      10       4   0.1944563E+01
      457       2       2      10       5   0.1944563E+01
      458       2       2      10       6   0.1944563E+01
      459       2       2      10       7   0.1944563E+01
      460       2       2      10       8   0.1944563E+01
      461       2       2      11       1   0.2066797E+01
      462       2       2      11       2   0.2066797E+01
      463       2       2      11       3   0.2066797E+01
      464       2       2      11       4   0.2066797E+01
      465       2       2      11       5   0.2066797E+01
      466       2       2      11       6   0.2066797E+01
      467       2       2      11       7   0.2066797E+01
      468       2       2      11       8   0.2066797E+01
      469       2       2      12       1   0.2196145E+01
      470       2       2      12       2   0.2196145E+01
      471       2       2      12       3   0.2196145E+01
      472       2       2      12       4   0.2196145E+01
      473       2       2      12       5   0.2196145E+01
      474       2       2      12       6   0.2196145E+01
      475       2       2      12       7   0.2196145E+01
      476       2       2      12       8   0.2196145E+01
      477       2       2      13       1   0.2331829E+01
      478       2       2      13       2   0.2331829E+01
      479       2       2      13       3   0.2331829E+01
      480       2       2      13       4   0.2331829E+01
      481       2       2      13       5   0.2331829E+01
      482       2       2      13       6   0.2331829E+01
      483       2       2      13       7   0.2331829E+01
      484       2       2      13       8   0.2331829E+01
      485       2       2      14       1   0.2473083E+01
      486       2       2      14       2   0.2473083E+01
      487       2       2      14       3   0.2473083E+01
      488       2       2      14       4   0.2473083E+01
      489       2       2      14       5   0.2473083E+01
      490       2       2      14       6   0.2473083E+01
      491       2       2      14       7   0.2473083E+01
      492       2       2      14       8   0.2473083E+01
      493       2       3       1       1   0.1743492E+01
      494       2       3       2       1   0.1768428E+01
      495       2       3       2       2   0.1768428E+01
      496       2       3       3       1   0.1805530E+01
      497       2       3       3       2   0.1805530E+01
      498       2       3       3       3   0.1805530E+01
      499       2       3       4       1   0.1854450E+01
      500       2       3       4       2   0.1854450E+01
      501       2       3       4       3   0.1854450E+01
      502       2       3       4       4   0.1854450E+01
      503       2       3       5       1   0.1914737E+01
      504       2       3       5       2   0.1914737E+01
      505       2       3       5       3   0.1914737E+01
      506       2       3       5       4   0.1914737E+01
      507       2       3       5       5   0.1914737E+01
      508       2       3       6       1   0.1985856E+01
      509       2       3       6       2   0.1985856E+01
      510       2       3       6       3   0.1985856E+01
      511       2       3       6       4   0.1985856E+01
      512       2       3       6       5   0.1985856E+01
      513       2       3       6       6   0.1985856E+01
      514       2       3       7       1   0.2067198E+01
      515       2       3       7       2   0.2067198E+01
      516       2       3       7       3   0.2067198E+01
      517       2       3       7       4   0.2067198E+01
      518       2       3       7       5   0.2067198E+01
      519       2       3       7       6   0.2067198E+01
      520       2       3       7       7   0.2067198E+01
      521       2       3       8       1   0.2158098E+01
      522       2       3       8       2   0.2158098E+01
      523       2       3       8       3   0.2158098E+01
      524       2       3       8       4   0.2158098E+01
      525       2       3       8       5   0.2158098E+01
      526       2       3       8       6   0.2158098E+01
      527       2       3       8       7   0.2158098E+01
      528       2       3       8       8   0.2158098E+01
      529       2       3       9       1   0.2257849E+01
      530       2       3       9       2   0.2257849E+01
      531       2       3       9       3   0.2257849E+01
      532       2       3       9       4   0.2257849E+01
      533       2       3       9       5   0.2257849E+01
      534       2       3       9       6   0.2257849E+01
      535       2       3       9       7   0.2257849E+01
      536       2       3       9       8   0.2257849E+01
      537       2       3      10       1   0.2365715E+01
      538       2       3      10       2   0.2365715E+01
      539       2       3      10       3   0.2365715E+01
      540       2       3      10       4   0.2365715E+01
      541       2       3      10       5   0.2365715E+01
      542       2       3      10       6   0.2365715E+01
      543       2       3      10       7   0.2365715E+01
      544       2       3      10       8   0.2365715E+01
      545       2       3      11       1   0.2480944E+01
      546       2       3      11       2   0.2480944E+01
      547       2       3      11       3   0.2480944E+01
      548       2       3      11       4   0.2480944E+01
      549       2       3      11       5   0.2480944E+01
      550       2       3      11       6   0.2480944E+01
      551       2       3      11       7   0.2480944E+01
      552       2       3      11       8   0.2480944E+01
      553       2       4       1       1   0.2172748E+01
      554       2       4       2       1   0.2196287E+01
      555       2       4       2       2   0.2196287E+01
      556       2       4       3       1   0.2231304E+01
      557       2       4       3       2   0.2231304E+01
      558       2       4       3       3   0.2231304E+01
      559       2       4       4       1   0.2277459E+01
      560       2       4       4       2   0.2277459E+01
      561       2       4       4       3   0.2277459E+01
      562       2       4       4       4   0.2277459E+01
      563       2       4       5       1   0.2334316E+01
      564       2       4       5       2   0.2334316E+01
      565       2       4       5       3   0.2334316E+01
      566       2       4       5       4   0.2334316E+01
      567       2       4       5       5   0.2334316E+01
      568       2       4       6       1   0.2401356E+01
      569       2       4       6       2   0.2401356E+01
      570       2       4       6       3   0.2401356E+01
      571       2       4       6       4   0.2401356E+01
      572       2       4       6       5   0.2401356E+01
      573       2       4       6       6   0.2401356E+01
      574       2       4       7       1   0.2477990E+01
      575       2       4       7       2   0.2477990E+01
      576       2       4       7       3   0.2477990E+01
      577       2       4       7       4   0.2477990E+01
      578       2       4       7       5   0.2477990E+01
      579       2       4       7       6   0.2477990E+01
      580       2       4       7       7   0.2477990E+01
