tot_nrg/Ev,col_nrg/Ev,integral_cross_section/A^2
1.551,1.2808121,3.027826882498232e-06
1.561,1.2908121,1.1168784064649915e-05
1.571,1.3008121,2.9197221097372122e-05
1.581,1.3108121,6.275121797375166e-05
1.591,1.3208121,0.000118303234971256
1.601,1.3308121,0.00020277304903621688
1.611,1.3408121,0.0003227530591773541
1.621,1.3508121,0.00048326308464259984
1.631,1.3608121,0.0006879331261393012
1.641,1.3708121,0.0009361671779313448
1.651,1.3808121,0.0012241195139587597
1.661,1.3908121,0.0015452367644387193
1.671,1.4008121,0.0018918396764735412
1.681,1.4108121,0.0022555530380032685
1.6909999999999998,1.4208120999999998,0.002628189834456293
1.7009999999999998,1.4308120999999998,0.0030027371209775462
1.7109999999999999,1.4408120999999998,0.0033728724484138515
1.7209999999999999,1.4508120999999998,0.0037332942675209423
1.7309999999999999,1.4608120999999998,0.004082608133635022
1.7409999999999999,1.4708120999999998,0.004419543014759165
1.751,1.4808120999999999,0.004744048536190845
1.761,1.4908120999999999,0.005051107924855946
1.771,1.5008120999999999,0.005328292087035993
1.781,1.5108120999999999,0.005548933394434547
1.791,1.5208121,0.005720965207162146
1.801,1.5308121,0.005892904013154159
1.811,1.5408121,0.006077217180064558
1.821,1.5508121,0.006242213850875144
1.831,1.5608121,0.006371969420985338
1.841,1.5708121,0.006419415910792578
1.851,1.5808121,0.006379349302704298
1.861,1.5908121,0.006270237961879995
1.871,1.6008121,0.006055152997226563
1.881,1.6108121,0.005777041297294697
1.891,1.6208121,0.005518897470593878
1.901,1.6308121,0.0053011038320030955
1.911,1.6408121,0.005121539447114997
1.921,1.6508121,0.00497379900927524
1.931,1.6608121,0.004843171333040908
1.9409999999999998,1.6708120999999998,0.004715370336590692
1.9509999999999998,1.6808120999999998,0.004585308932901438
1.9609999999999999,1.6908120999999998,0.0044577352591077795
1.9709999999999999,1.7008120999999998,0.0043367968026473405
1.9809999999999999,1.7108120999999998,0.0042263123340116
1.9909999999999999,1.7208120999999998,0.004127085199721731
2.001,1.7308120999999999,0.004036029036274788
2.011,1.7408121,0.003951369270146239
2.021,1.7508120999999999,0.0038686587354888084
2.031,1.7608121,0.0037846884244251686
2.041,1.7708121,0.0036971011177670664
2.051,1.7808121000000001,0.003607334143925857
2.061,1.7908121,0.003519173389186454
2.0709999999999997,1.8008120999999997,0.003437773431282723
2.081,1.8108121,0.003367805222069316
2.0909999999999997,1.8208120999999997,0.003312286427129148
2.101,1.8308121,0.0032723699977073076
2.1109999999999998,1.8408120999999997,0.00324558029903935
2.121,1.8508121,0.0032298707778182926
2.131,1.8608120999999997,0.00322372842631801
2.141,1.8708121,0.003222723106010917
2.151,1.8808120999999998,0.0031971695184164926
2.161,1.8908121,0.0031762553936121552
2.171,1.9008120999999998,0.003172902773754969
2.181,1.9108121,0.003189405033462448
2.191,1.9208120999999998,0.0031751608093649013
2.201,1.9308121,0.0031715741502367748
2.211,1.9408120999999998,0.00316262458754823
2.221,1.9508121,0.0031469393277407547
2.231,1.9608120999999998,0.00313121118025028
2.241,1.9708121,0.0031100603558424757
2.251,1.9808120999999999,0.003088011641948322
2.261,1.9908121,0.003084174504813975
