tot_nrg/Ev,col_nrg/Ev,integral_cross_section/A^2
1.771,1.4861288,2.574324560341603e-07
1.781,1.4961288,2.1311711783676016e-06
1.791,1.5061288,8.192662775861537e-06
1.801,1.5161288,1.9930187734443114e-05
1.811,1.5261288,3.721119078438114e-05
1.821,1.5361288,5.9776231812093126e-05
1.831,1.5461288,8.741787221237102e-05
1.841,1.5561288,0.00012005889977448736
1.851,1.5661288,0.00015735739608581866
1.861,1.5761288,0.0001980281657449457
1.871,1.5861288,0.00023884981382419097
1.881,1.5961288,0.00027709110669297534
1.891,1.6061288,0.000317025811519257
1.901,1.6161288,0.0003656029289569542
1.911,1.6261288,0.0004230621961937389
1.921,1.6361288,0.00048076919562866505
1.931,1.6461288,0.0005302065023414692
1.9409999999999998,1.6561287999999998,0.0005698938431829459
1.9509999999999998,1.6661287999999999,0.0006022708256226302
1.9609999999999999,1.6761287999999999,0.0006298201486899888
1.9709999999999999,1.6861287999999999,0.0006542339613623103
1.9809999999999999,1.6961287999999999,0.0006764335289422307
1.9909999999999999,1.7061288,0.0006978609033666669
2.001,1.7161288,0.0007208829201712986
2.011,1.7261288000000001,0.000747014758590738
2.021,1.7361288,0.0007762090349884057
2.031,1.7461288000000001,0.0008076653724529217
2.041,1.7561288,0.0008412684410889446
2.051,1.7661288000000002,0.0008776343268781552
2.061,1.7761288,0.0009173181446720073
2.0709999999999997,1.7861287999999997,0.0009601614774187292
2.081,1.7961288,0.0010061896895909876
2.0909999999999997,1.8061287999999998,0.0010550036023987868
2.101,1.8161288,0.0011060977693137465
2.1109999999999998,1.8261287999999998,0.0011587824851944722
2.121,1.8361288,0.0012124220672186479
2.131,1.8461287999999998,0.0012671028089565653
2.141,1.8561288,0.0013317255593596569
2.151,1.8661287999999998,0.0013755300062316162
2.161,1.8761288,0.00143025625583329
2.171,1.8861287999999998,0.0014741272303040018
2.181,1.8961288,0.0015211872182661745
2.191,1.9061287999999998,0.0015750629703899914
2.201,1.9161288,0.0016202793332787786
2.211,1.9261287999999999,0.001667537901674517
2.221,1.9361288,0.0017119292773217858
2.231,1.9461287999999999,0.0017665672257611321
2.241,1.9561288000000001,0.0018091797090745894
2.251,1.9661288,0.001851810143054139
2.261,1.9761288000000001,0.0018913755979062606
