tot_nrg/Ev,col_nrg/Ev,integral_cross_section/A^2
1.7309999999999999,1.4608120999999998,5.155687741389193e-09
1.7409999999999999,1.4708120999999998,1.5819815933836144e-07
1.751,1.4808120999999999,1.138502870806232e-06
1.761,1.4908120999999999,6.133643090679833e-06
1.771,1.5008120999999999,2.686913165937668e-05
1.781,1.5108120999999999,8.565305547341205e-05
1.791,1.5208121,0.00018552412311100404
1.801,1.5308121,0.0002966066277699804
1.811,1.5408121,0.0004010169011475731
1.821,1.5508121,0.000495753422914475
1.831,1.5608121,0.0005786268057244116
1.841,1.5708121,0.000663611929975629
1.851,1.5808121,0.0007354573338677257
1.861,1.5908121,0.0008026956344829272
1.871,1.6008121,0.0008629866163097071
1.881,1.6108121,0.0008847542774155878
1.891,1.6208121,0.0008670009423843255
1.901,1.6308121,0.0008261349952366444
1.911,1.6408121,0.0007796067265022261
1.921,1.6508121,0.0007494288562213206
1.931,1.6608121,0.0007492437755156273
1.9409999999999998,1.6708120999999998,0.0007741924553937642
1.9509999999999998,1.6808120999999998,0.0008112170972720396
1.9609999999999999,1.6908120999999998,0.0008527812355262118
1.9709999999999999,1.7008120999999998,0.0008926004010494143
1.9809999999999999,1.7108120999999998,0.0009262324045599032
1.9909999999999999,1.7208120999999998,0.000957834532724899
2.001,1.7308120999999999,0.0009900381022200594
2.011,1.7408121,0.0010233142374016838
2.021,1.7508120999999999,0.0010610184137724151
2.031,1.7608121,0.0011060401135541355
2.041,1.7708121,0.0011543363394446243
2.051,1.7808121000000001,0.001201383345725421
2.061,1.7908121,0.001244924021645176
2.0709999999999997,1.8008120999999997,0.0012858573709881858
2.081,1.8108121,0.0013245720490270754
2.0909999999999997,1.8208120999999997,0.0013629663175681339
2.101,1.8308121,0.001401791270254376
2.1109999999999998,1.8408120999999997,0.0014418520424450102
2.121,1.8508121,0.001484713629349473
2.131,1.8608120999999997,0.0015318410026515991
2.141,1.8708121,0.0015813674113515398
2.151,1.8808120999999998,0.001592936655171172
2.161,1.8908121,0.0015999178377961029
2.171,1.9008120999999998,0.0016653249102966034
2.181,1.9108121,0.001711452735768369
2.191,1.9208120999999998,0.0017470856435971918
2.201,1.9308121,0.001790240184080901
2.211,1.9408120999999998,0.0018296213260103691
2.221,1.9508121,0.0018647479193949078
2.231,1.9608120999999998,0.00189303760678555
2.241,1.9708121,0.0019189228840941163
2.251,1.9808120999999999,0.0019388347096352069
2.261,1.9908121,0.001966216588983385
