tot_nrg/Ev,col_nrg/Ev,integral_cross_section/A^2
0.361,0.0761288,0.0008325225485983957
0.371,0.0861288,0.002812264702960797
0.381,0.09612880000000001,0.0051899172359591815
0.391,0.10612880000000002,0.007506835849814406
0.401,0.11612880000000003,0.009514311092714616
0.41100000000000003,0.12612880000000004,0.01115171070980797
0.42100000000000004,0.13612880000000005,0.012489217944148744
0.431,0.1461288,0.013648968548711737
0.441,0.1561288,0.0147723049692747
0.451,0.16612880000000002,0.015998216805275415
0.461,0.17612880000000003,0.01745796895498294
0.47100000000000003,0.18612880000000004,0.01927575334959307
0.48100000000000004,0.19612880000000005,0.021571284492524895
0.491,0.2061288,0.02446494340075062
0.501,0.2161288,0.02808555708225447
0.511,0.22612880000000002,0.03257005818078892
0.521,0.23612880000000003,0.0380700576500655
0.531,0.24612880000000004,0.044756491012010166
0.541,0.25612880000000005,0.05282452956765183
0.551,0.26612880000000005,0.06249959266033427
0.561,0.27612880000000006,0.07404268862613406
0.5710000000000001,0.28612880000000007,0.08775592226661097
0.581,0.29612879999999997,0.10398260262743587
0.591,0.3061288,0.123093515613556
0.601,0.3161288,0.14545437768112116
0.611,0.3261288,0.1713538747807708
0.621,0.3361288,0.2008990782579964
0.631,0.3461288,0.23389565414565205
0.6409999999999999,0.3561287999999999,0.26978901531861443
0.6509999999999999,0.3661287999999999,0.3077178616166622
0.6609999999999999,0.37612879999999993,0.3466872511768929
0.6709999999999999,0.38612879999999994,0.38578205214539524
0.6809999999999999,0.39612879999999995,0.42427872018800955
0.691,0.40612879999999996,0.46168864058305203
0.701,0.41612879999999997,0.4976831505385378
0.711,0.4261288,0.5320207913858952
0.721,0.4361288,0.5644224157508778
0.731,0.4461288,0.5945136337191426
0.741,0.4561288,0.621793675371477
0.7509999999999999,0.4661287999999999,0.6456645273411918
0.7609999999999999,0.4761287999999999,0.665490857282629
0.7709999999999999,0.4861287999999999,0.6807421359045899
0.7809999999999999,0.4961287999999999,0.6911732196152913
0.7909999999999999,0.5061287999999999,0.6969464666326117
0.8009999999999999,0.5161287999999999,0.6985900774532771
0.8109999999999999,0.5261288,0.6968443698873423
0.821,0.5361288,0.692465547789107
0.831,0.5461288,0.6861095750589307
0.841,0.5561288,0.6782777294722679
0.851,0.5661288,0.6693377218265771
0.861,0.5761288,0.6595539104545877
0.871,0.5861288,0.6491299077116611
0.8809999999999999,0.5961287999999999,0.6382334364372236
0.8909999999999999,0.6061287999999999,0.6270191388488797
0.9009999999999999,0.6161287999999999,0.615633614565401
0.9109999999999999,0.6261287999999999,0.6042118176428368
0.9209999999999999,0.6361287999999999,0.5928617577963455
0.9309999999999999,0.6461288,0.5816348312753779
0.941,0.6561288,0.5705066586748506
0.951,0.6661288,0.5593425701979855
0.961,0.6761288,0.5478846663420858
0.971,0.6861288,0.5358371157295072
0.981,0.6961288,0.5232414704240895
0.991,0.7061288,0.5105531882197507
1.001,0.7161287999999999,0.49817034246574526
1.011,0.7261287999999999,0.48614882278757005
1.021,0.7361287999999999,0.47457138971794693
1.031,0.7461287999999999,0.4634119178515756
1.041,0.7561287999999999,0.45241239500101643
1.051,0.7661287999999999,0.4416353561763916
1.061,0.7761288,0.4312361116981052
1.071,0.7861288,0.4211124685986866
1.081,0.7961288,0.4112572311542769
1.091,0.8061288,0.4019551022075685
1.101,0.8161288,0.39346344030794966
1.111,0.8261288,0.3857491532703555
1.121,0.8361288,0.3786037824692572
1.131,0.8461288,0.3718036621821016
1.141,0.8561288,0.3651836870932472
1.151,0.8661288,0.3586209746139396
1.161,0.8761288,0.3520541792691714
1.171,0.8861288,0.345429604041501
1.181,0.8961288000000001,0.33871549920137833
1.1909999999999998,0.9061287999999998,0.33191269642492904
1.2009999999999998,0.9161287999999999,0.32509467099965306
1.2109999999999999,0.9261287999999999,0.31835344894287937
1.2209999999999999,0.9361287999999999,0.3117771371455048
1.2309999999999999,0.9461287999999999,0.30540452751778524
1.2409999999999999,0.9561287999999999,0.2992408415881404
1.251,0.9661287999999999,0.2932837539980255
1.261,0.9761287999999999,0.2875198502215878
1.271,0.9861287999999999,0.2819550482951911
1.281,0.9961287999999999,0.2765970635817817
1.291,1.0061288,0.27145571772927746
1.301,1.0161288,0.26655047186239184
1.311,1.0261288,0.26187669174186623
1.321,1.0361288,0.25742424993547336
1.331,1.0461288,0.2531667622404356
1.341,1.0561288,0.24906558084990102
1.351,1.0661288,0.24508022100348512
1.361,1.0761288,0.2411823614909055
1.371,1.0861288,0.23740747009692512
1.381,1.0961288,0.23371523187492418
1.391,1.1061288,0.2300434007464438
1.401,1.1161288,0.22628800943098176
1.411,1.1261288,0.222406908964896
1.421,1.1361288,0.21847153004840614
1.431,1.1461288,0.21450163038391667
1.4409999999999998,1.1561287999999998,0.21052769485835315
1.4509999999999998,1.1661287999999999,0.20659306485749318
1.4609999999999999,1.1761287999999999,0.2027432816733314
1.4709999999999999,1.1861287999999999,0.19904373116512838
1.4809999999999999,1.1961287999999999,0.19550219250766693
1.4909999999999999,1.2061288,0.1920954063598176
1.501,1.2161288,0.18881659306601822
1.511,1.2261288,0.1856470133990492
1.521,1.2361288,0.1825789186405434
1.531,1.2461288,0.17963400146076391
1.541,1.2561288,0.17687698279035632
1.551,1.2661288,0.1743458331884898
1.561,1.2761288,0.17199669820355362
1.571,1.2861288,0.16976016038232403
1.581,1.2961288,0.16757736904223272
1.591,1.3061288,0.1654108818402446
1.601,1.3161288,0.1632408889810013
1.611,1.3261288,0.161047779053731
1.621,1.3361288,0.15882292050542515
1.631,1.3461288,0.1565606084269713
1.641,1.3561288,0.15426223783572152
1.651,1.3661288,0.15193581190194638
1.661,1.3761288,0.1495991817181538
1.671,1.3861288,0.14727832178684003
1.681,1.3961288,0.144992743921389
1.6909999999999998,1.4061287999999998,0.14275606641919228
1.7009999999999998,1.4161287999999999,0.1405718308735845
1.7109999999999999,1.4261287999999999,0.1384424251106874
1.7209999999999999,1.4361287999999999,0.13636706574361418
1.7309999999999999,1.4461287999999999,0.13435129205987678
1.7409999999999999,1.4561288,0.1324012674722031
1.751,1.4661288,0.13051828027705809
1.761,1.4761288,0.12871279653477022
1.771,1.4861288,0.12702680694152363
1.781,1.4961288,0.12556596642860168
1.791,1.5061288,0.12436419716249097
1.801,1.5161288,0.12321834315961262
1.811,1.5261288,0.12197764589873221
1.821,1.5361288,0.12060432990481866
1.831,1.5461288,0.11917061071033502
1.841,1.5561288,0.11774555310455247
1.851,1.5661288,0.11630500280251935
1.861,1.5761288,0.11491063814294983
1.871,1.5861288,0.11354662639381402
1.881,1.5961288,0.11208534965548507
1.891,1.6061288,0.11051000020398159
1.901,1.6161288,0.10888260681612567
1.911,1.6261288,0.10726105902195403
1.921,1.6361288,0.10571464377365236
1.931,1.6461288,0.10429723886501224
1.9409999999999998,1.6561287999999998,0.10300161408017017
1.9509999999999998,1.6661287999999999,0.10179409514045717
1.9609999999999999,1.6761287999999999,0.10063795313605557
1.9709999999999999,1.6861287999999999,0.09950669298741775
1.9809999999999999,1.6961287999999999,0.09839666026097844
1.9909999999999999,1.7061288,0.09730392981345003
2.001,1.7161288,0.0962239743118919
2.011,1.7261288000000001,0.09515946637774197
2.021,1.7361288,0.09411316615476938
2.031,1.7461288000000001,0.0930757476539323
2.041,1.7561288,0.09202785730309815
2.051,1.7661288000000002,0.0909574596674277
2.061,1.7761288,0.08986726075604042
2.0709999999999997,1.7861287999999997,0.08877263621432564
2.081,1.7961288,0.08768857662383828
2.0909999999999997,1.8061287999999998,0.08662307066440796
2.101,1.8161288,0.08558155097652682
2.1109999999999998,1.8261287999999998,0.08456188844976276
2.121,1.8361288,0.08355937151334883
2.131,1.8461287999999998,0.08257313518813446
2.141,1.8561288,0.08160636716038962
2.151,1.8661287999999998,0.08068129610977635
2.161,1.8761288,0.0797409673686051
2.171,1.8861287999999998,0.07875956121337287
2.181,1.8961288,0.0778503674375716
2.191,1.9061287999999998,0.07690447290707922
2.201,1.9161288,0.07599743820886228
2.211,1.9261287999999999,0.07508870632744277
2.221,1.9361288,0.07419401681862932
2.231,1.9461287999999999,0.07327456402863936
2.241,1.9561288000000001,0.0724150585600787
2.251,1.9661288,0.07151346717493332
2.261,1.9761288000000001,0.07063718882365382
