tot_nrg/Ev,col_nrg/Ev,integral_cross_section/A^2
1.271,0.9861287999999999,1.523111290162653e-07
1.281,0.9961287999999999,5.109343856499825e-07
1.291,1.0061288,1.2744954495961807e-06
1.301,1.0161288,2.6971771717833594e-06
1.311,1.0261288,5.226559021676056e-06
1.321,1.0361288,9.376845923629694e-06
1.331,1.0461288,1.605424526533053e-05
1.341,1.0561288,2.6385899990098067e-05
1.351,1.0661288,4.192436882223484e-05
1.361,1.0761288,6.464701179426792e-05
1.371,1.0861288,9.650223616535395e-05
1.381,1.0961288,0.00013932897603952585
1.391,1.1061288,0.0001942182677175554
1.401,1.1161288,0.00026178430982824627
1.411,1.1261288,0.0003416453577064406
1.421,1.1361288,0.00043249315751161903
1.431,1.1461288,0.0005336553385416595
1.4409999999999998,1.1561287999999998,0.0006433626866672953
1.4509999999999998,1.1661287999999999,0.0007613551760429816
1.4609999999999999,1.1761287999999999,0.0008871380047303427
1.4709999999999999,1.1861287999999999,0.0010212384893570174
1.4809999999999999,1.1961287999999999,0.001161717295849345
1.4909999999999999,1.2061288,0.0013043011804545063
1.501,1.2161288,0.0014456110687879663
1.511,1.2261288,0.0015816089174969141
1.521,1.2361288,0.0017097578051873152
1.531,1.2461288,0.0018262862648905324
1.541,1.2561288,0.0019283816629292426
1.551,1.2661288,0.002014847397124045
1.561,1.2761288,0.0020860722923657722
1.571,1.2861288,0.002143016738213342
1.581,1.2961288,0.0021856596242233266
1.591,1.3061288,0.0022130070210226384
1.601,1.3161288,0.002224568243771136
1.611,1.3261288,0.002220161831956755
1.621,1.3361288,0.0022012875223522176
1.631,1.3461288,0.00217096658570099
1.641,1.3561288,0.00213279198928339
1.651,1.3661288,0.0020916605437769223
1.661,1.3761288,0.002051681603495823
1.671,1.3861288,0.002016904632403965
1.681,1.3961288,0.001990065063765996
1.6909999999999998,1.4061287999999998,0.001972721266485192
1.7009999999999998,1.4161287999999999,0.0019652399631352275
1.7109999999999999,1.4261287999999999,0.0019667494110685324
1.7209999999999999,1.4361287999999999,0.0019755444402697643
1.7309999999999999,1.4461287999999999,0.0019893161304664893
1.7409999999999999,1.4561288,0.002005695964379412
1.751,1.4661288,0.002022354547755766
1.761,1.4761288,0.002037882560896025
1.771,1.4861288,0.002051299615153992
1.781,1.4961288,0.002063282210837651
1.791,1.5061288,0.002076158544038119
1.801,1.5161288,0.0020913900541153843
1.811,1.5261288,0.0021051968355161963
1.821,1.5361288,0.0021111678514598494
1.831,1.5461288,0.0021043857944570013
1.841,1.5561288,0.0020839962891690714
1.851,1.5661288,0.0020545886673624144
1.861,1.5761288,0.0020253253452758376
1.871,1.5861288,0.00200685138235401
1.881,1.5961288,0.0020056895642794888
1.891,1.6061288,0.0020181883410709377
1.901,1.6161288,0.002038656313378856
1.911,1.6261288,0.0020645139639760765
1.921,1.6361288,0.0020952565861988865
1.931,1.6461288,0.002130795950523818
1.9409999999999998,1.6561287999999998,0.002171693565286148
1.9509999999999998,1.6661287999999999,0.0022174997067239055
1.9609999999999999,1.6761287999999999,0.002266825932257308
1.9709999999999999,1.6861287999999999,0.0023169892892657656
1.9809999999999999,1.6961287999999999,0.0023653481157990793
1.9909999999999999,1.7061288,0.002410376192470248
2.001,1.7161288,0.002452338214251858
2.011,1.7261288000000001,0.002492293233491849
2.021,1.7361288,0.002531373910246691
2.031,1.7461288000000001,0.002570210767475214
2.041,1.7561288,0.0026090704022371514
2.051,1.7661288000000002,0.0026472294566434965
2.061,1.7761288,0.00268382682074235
2.0709999999999997,1.7861287999999997,0.002718912171791348
2.081,1.7961288,0.002753212633335698
2.0909999999999997,1.8061287999999998,0.0027878810133316976
2.101,1.8161288,0.002824281084070816
2.1109999999999998,1.8261287999999998,0.002863269663585183
2.121,1.8361288,0.002905022624859519
2.131,1.8461287999999998,0.002949983684204636
2.141,1.8561288,0.003001154734325606
2.151,1.8661287999999998,0.003049489766024904
2.161,1.8761288,0.003098561214349528
2.171,1.8861287999999998,0.003153670082965472
2.181,1.8961288,0.0032097385074785945
2.191,1.9061287999999998,0.00325780199972061
2.201,1.9161288,0.0033128786103370934
2.211,1.9261287999999999,0.0033699866464183817
2.221,1.9361288,0.0034253017065700945
2.231,1.9461287999999999,0.0034691305510606506
2.241,1.9561288000000001,0.0035305292498004856
2.251,1.9661288,0.003580886088645558
2.261,1.9761288000000001,0.0036306496628148873
