tot_nrg/Ev,col_nrg/Ev,integral_cross_section/A^2
1.831,1.5461288,9.417541031515134e-08
1.841,1.5561288,5.611059630061853e-07
1.851,1.5661288,2.053203512595702e-06
1.861,1.5761288,5.792779549534237e-06
1.871,1.5861288,1.3807020104641969e-05
1.881,1.5961288,2.9320277226242055e-05
1.891,1.6061288,5.708830394363503e-05
1.901,1.6161288,0.00010443385872180117
1.911,1.6261288,0.0001811681298578743
1.921,1.6361288,0.00030026522038606663
1.931,1.6461288,0.0004763551616391996
1.9409999999999998,1.6561287999999998,0.0007216005682106696
1.9509999999999998,1.6661287999999999,0.001039738537524607
1.9609999999999999,1.6761287999999999,0.001419353538961568
1.9709999999999999,1.6861287999999999,0.001834608184801208
1.9809999999999999,1.6961287999999999,0.002253660478990719
1.9909999999999999,1.7061288,0.0026477552738020773
2.001,1.7161288,0.003000908802183513
2.011,1.7261288000000001,0.0033102939339433135
2.021,1.7361288,0.003577947515473402
2.031,1.7461288000000001,0.003807343849155069
2.041,1.7561288,0.004002279217921558
2.051,1.7661288000000002,0.004168194289584119
2.061,1.7761288,0.004308311070223934
2.0709999999999997,1.7861287999999997,0.004422442246876939
2.081,1.7961288,0.004508294398747952
2.0909999999999997,1.8061287999999998,0.004564754429404864
2.101,1.8161288,0.004592563203815119
2.1109999999999998,1.8261287999999998,0.0045955174273517784
2.121,1.8361288,0.004577916466527066
2.131,1.8461287999999998,0.004544815774176017
2.141,1.8561288,0.004502153205852979
2.151,1.8661287999999998,0.004467386430875982
2.161,1.8761288,0.004439960038536802
2.171,1.8861287999999998,0.004365633578729762
2.181,1.8961288,0.00431928450333096
2.191,1.9061287999999998,0.004258692450221352
2.201,1.9161288,0.004188708935563311
2.211,1.9261287999999999,0.004118152735262389
2.221,1.9361288,0.0040335112361971825
2.231,1.9461287999999999,0.00395320652235165
2.241,1.9561288000000001,0.003850491112054758
2.251,1.9661288,0.0037534351015720622
2.261,1.9761288000000001,0.00364371945496331
