tot_nrg/Ev,col_nrg/Ev,integral_cross_section/A^2
0.831,0.5461288,4.044513741046896e-09
0.841,0.5561288,1.7986770776733925e-08
0.851,0.5661288,7.072516010785669e-08
0.861,0.5761288,2.163440961348546e-07
0.871,0.5861288,6.082200379044234e-07
0.8809999999999999,0.5961287999999999,1.5263970514727385e-06
0.8909999999999999,0.6061287999999999,3.60083263629724e-06
0.9009999999999999,0.6161287999999999,7.96481749522971e-06
0.9109999999999999,0.6261287999999999,1.722904836730701e-05
0.9209999999999999,0.6361287999999999,3.604570799640489e-05
0.9309999999999999,0.6461288,7.386502698468746e-05
0.941,0.6561288,0.0001515479585671589
0.951,0.6661288,0.00031030324941885737
0.961,0.6761288,0.0006204815492533632
0.971,0.6861288,0.0011472802123900865
0.981,0.6961288,0.0018324811568835538
0.991,0.7061288,0.0025223874599567125
1.001,0.7161287999999999,0.0031313087518303737
1.011,0.7261287999999999,0.00365707918018099
1.021,0.7361287999999999,0.004124713207399433
1.031,0.7461287999999999,0.004560774122230868
1.041,0.7561287999999999,0.004990866478421283
1.051,0.7661287999999999,0.005438655877014509
1.061,0.7761288,0.005925091047975571
1.071,0.7861288,0.006454466275556469
1.081,0.7961288,0.007004446631564565
1.091,0.8061288,0.007520220701775075
1.101,0.8161288,0.007951216282714958
1.111,0.8261288,0.008281643895977265
1.121,0.8361288,0.008532450359498183
1.131,0.8461288,0.008724385109820008
1.141,0.8561288,0.008869596405934174
1.151,0.8661288,0.008972008739602395
1.161,0.8761288,0.009033481887042009
1.171,0.8861288,0.009059826225684384
1.181,0.8961288000000001,0.00906027863990028
1.1909999999999998,0.9061287999999998,0.009051718053793883
1.2009999999999998,0.9161287999999999,0.00904819293021617
1.2109999999999999,0.9261287999999999,0.009067464302868089
1.2209999999999999,0.9361287999999999,0.009118579469202952
1.2309999999999999,0.9461287999999999,0.009212080427576961
1.2409999999999999,0.9561287999999999,0.009351009251001333
1.251,0.9661287999999999,0.009537266198918148
1.261,0.9761287999999999,0.009768400024133405
1.271,0.9861287999999999,0.010036584604659192
1.281,0.9961287999999999,0.01033190085809669
1.291,1.0061288,0.010635867467546476
1.301,1.0161288,0.010929507860362142
1.311,1.0261288,0.011187224953418529
1.321,1.0361288,0.01137967193570554
1.331,1.0461288,0.011471362176562834
1.341,1.0561288,0.011417022087406139
1.351,1.0661288,0.011192072969209448
1.361,1.0761288,0.010860076249545459
1.371,1.0861288,0.010558848457604172
1.381,1.0961288,0.010372909813792058
1.391,1.1061288,0.010300693044789882
1.401,1.1161288,0.010307287445064423
1.411,1.1261288,0.010361043370062963
1.421,1.1361288,0.010438461287103986
1.431,1.1461288,0.01052801622738589
1.4409999999999998,1.1561287999999998,0.01063201790145026
1.4509999999999998,1.1661287999999999,0.010763915923264008
1.4609999999999999,1.1761287999999999,0.010938018596196126
1.4709999999999999,1.1861287999999999,0.011136713444224488
1.4809999999999999,1.1961287999999999,0.01131393169090576
1.4909999999999999,1.2061288,0.011438985415794654
1.501,1.2161288,0.011497089534983435
1.511,1.2261288,0.011483630377927104
1.521,1.2361288,0.011400597820413663
1.531,1.2461288,0.01125930251362703
1.541,1.2561288,0.011081215547716395
1.551,1.2661288,0.010891424987578537
1.561,1.2761288,0.010707482740105885
1.571,1.2861288,0.010539994662692932
1.581,1.2961288,0.01039269204641688
1.591,1.3061288,0.01026505293720934
1.601,1.3161288,0.01015827660968608
1.611,1.3261288,0.010075068697978785
1.621,1.3361288,0.010015777163779686
1.631,1.3461288,0.009982110645165491
1.641,1.3561288,0.009971072766270819
1.651,1.3661288,0.009975341842290928
1.661,1.3761288,0.009985609626029268
1.671,1.3861288,0.00999057719799175
1.681,1.3961288,0.009979195143858968
1.6909999999999998,1.4061287999999998,0.009945044071843932
1.7009999999999998,1.4161287999999999,0.009885559193263284
1.7109999999999999,1.4261287999999999,0.009799661191834409
1.7209999999999999,1.4361287999999999,0.00969130687781135
1.7309999999999999,1.4461287999999999,0.009563524373148878
1.7409999999999999,1.4561288,0.009419979934727901
1.751,1.4661288,0.009264838679829109
1.761,1.4761288,0.009101505538925712
1.771,1.4861288,0.008937053653324232
1.781,1.4961288,0.008781525800912954
1.791,1.5061288,0.008647089824478867
1.801,1.5161288,0.008541165802871084
1.811,1.5261288,0.008464182019920432
1.821,1.5361288,0.008409303092021732
1.831,1.5461288,0.008365342144606826
1.841,1.5561288,0.008322780748831029
1.851,1.5661288,0.008273810425039706
1.861,1.5761288,0.008216998564823427
1.871,1.5861288,0.008154296429001732
1.881,1.5961288,0.008087718762362674
1.891,1.6061288,0.0080192313962223
1.901,1.6161288,0.007951447033330615
1.911,1.6261288,0.007884970552863283
1.921,1.6361288,0.007813681643828651
1.931,1.6461288,0.007728760409814568
1.9409999999999998,1.6561287999999998,0.007628081024031333
1.9509999999999998,1.6661287999999999,0.00751794477955089
1.9609999999999999,1.6761287999999999,0.007405797962082735
1.9709999999999999,1.6861287999999999,0.007297774122768906
1.9809999999999999,1.6961287999999999,0.0071980516155166685
1.9909999999999999,1.7061288,0.007107950496275105
2.001,1.7161288,0.007027116798278426
2.011,1.7261288000000001,0.006954048007115909
2.021,1.7361288,0.00688712540296557
2.031,1.7461288000000001,0.006827073104513996
2.041,1.7561288,0.006773676627018453
2.051,1.7661288000000002,0.006725881117085909
2.061,1.7761288,0.006681639774523438
2.0709999999999997,1.7861287999999997,0.006638287519889494
2.081,1.7961288,0.006592269646394751
2.0909999999999997,1.8061287999999998,0.00654180164059448
2.101,1.8161288,0.006486616267012402
2.1109999999999998,1.8261287999999998,0.006427781013516729
2.121,1.8361288,0.006367287658987248
2.131,1.8461287999999998,0.006306670016028132
2.141,1.8561288,0.006248638168364208
2.151,1.8661287999999998,0.006187773149660651
2.161,1.8761288,0.006132643964563859
2.171,1.8861287999999998,0.00606713027454544
2.181,1.8961288,0.0060098241893185396
2.191,1.9061287999999998,0.005942768832650193
2.201,1.9161288,0.005887634996212785
2.211,1.9261287999999999,0.0058314953548490684
2.221,1.9361288,0.005775299809397392
2.231,1.9461287999999999,0.005722553113585739
2.241,1.9561288000000001,0.005674345076817837
2.251,1.9661288,0.005627418890313814
2.261,1.9761288000000001,0.005576875204869612
