tot_nrg/Ev,col_nrg/Ev,integral_cross_section/A^2
1.071,0.8008120999999999,2.515724789361439e-07
1.081,0.8108120999999999,1.478901227603681e-06
1.091,0.8208120999999999,5.029437651639537e-06
1.101,0.8308120999999999,1.3047071252450973e-05
1.111,0.8408121,2.8525119237898708e-05
1.121,0.8508121,5.534139771638638e-05
1.131,0.8608121,9.846269353178748e-05
1.141,0.8708121,0.0001639845713029465
1.151,0.8808121,0.00025943095153117796
1.161,0.8908121,0.00039194768442726125
1.171,0.9008121,0.0005707356534013195
1.181,0.9108121,0.0008012743244220424
1.1909999999999998,0.9208120999999998,0.0010850161386182903
1.2009999999999998,0.9308120999999998,0.0014235624924267547
1.2109999999999999,0.9408120999999998,0.0018172187246123341
1.2209999999999999,0.9508120999999998,0.002269687025745835
1.2309999999999999,0.9608120999999998,0.0027842141987989015
1.2409999999999999,0.9708120999999998,0.0033633447642430325
1.251,0.9808120999999999,0.004010965458610679
1.261,0.9908120999999999,0.004723613417469703
1.271,1.0008120999999999,0.00549405901747652
1.281,1.0108120999999999,0.006304878582634613
1.291,1.0208121,0.007134253835819954
1.301,1.0308121,0.007955076357329775
1.311,1.0408121,0.008741706306600042
1.321,1.0508121,0.009470725153858314
1.331,1.0608121,0.010135574133457899
1.341,1.0708121,0.010747885816173905
1.351,1.0808121,0.01135155095315044
1.361,1.0908121,0.011955234221857384
1.371,1.1008121,0.012498235332683906
1.381,1.1108121,0.012910780466737142
1.391,1.1208121,0.013178313179462376
1.401,1.1308121,0.013291808082463061
1.411,1.1408121,0.01329679997324422
1.421,1.1508121,0.01321859494901771
1.431,1.1608121,0.01302946670740168
1.4409999999999998,1.1708120999999998,0.012761597283564451
1.4509999999999998,1.1808120999999998,0.012460786144309533
1.4609999999999999,1.1908120999999998,0.012112922816093668
1.4709999999999999,1.2008120999999998,0.011697623975263747
1.4809999999999999,1.2108120999999998,0.011238138517717298
1.4909999999999999,1.2208120999999998,0.010762857143714225
1.501,1.2308120999999999,0.010287858815658949
1.511,1.2408120999999999,0.009824738172891638
1.521,1.2508120999999999,0.009387202307104306
1.531,1.2608120999999999,0.008989604722794213
1.541,1.2708121,0.008640285732118905
1.551,1.2808121,0.008342414772113298
1.561,1.2908121,0.008094292760828683
1.571,1.3008121,0.00789517401888674
1.581,1.3108121,0.007741639221016285
1.591,1.3208121,0.00763035871947698
1.601,1.3308121,0.007555997519814351
1.611,1.3408121,0.007510058584534966
1.621,1.3508121,0.00748548188106439
1.631,1.3608121,0.007473010223272687
1.641,1.3708121,0.007467474429819193
1.651,1.3808121,0.007463577285164599
1.661,1.3908121,0.007451504458830014
1.671,1.4008121,0.007424215658601955
1.681,1.4108121,0.007379037740038888
1.6909999999999998,1.4208120999999998,0.007317295670223794
1.7009999999999998,1.4308120999999998,0.007242581296484838
1.7109999999999999,1.4408120999999998,0.007161885465975382
1.7209999999999999,1.4508120999999998,0.007079122101443658
1.7309999999999999,1.4608120999999998,0.006999096855852101
1.7409999999999999,1.4708120999999998,0.006924167983369789
1.751,1.4808120999999999,0.006851768133317313
1.761,1.4908120999999999,0.006779374682068638
1.771,1.5008120999999999,0.006715243456255645
1.781,1.5108120999999999,0.006704777642526345
1.791,1.5208121,0.00679260787206551
1.801,1.5308121,0.0069371698259474614
1.811,1.5408121,0.00708091715211819
1.821,1.5508121,0.007206115282879565
1.831,1.5608121,0.007319129817189912
1.841,1.5708121,0.0073976645294319895
1.851,1.5808121,0.007455946754836904
1.861,1.5908121,0.0074874934448751155
1.871,1.6008121,0.007455007505297401
1.881,1.6108121,0.0073697286835960295
1.891,1.6208121,0.007288824374157507
1.901,1.6308121,0.007252836530609999
1.911,1.6408121,0.007278367999167454
1.921,1.6508121,0.007358340101068592
1.931,1.6608121,0.007466776146052908
1.9409999999999998,1.6708120999999998,0.007578886655907531
1.9509999999999998,1.6808120999999998,0.007685203507010897
1.9609999999999999,1.6908120999999998,0.0077843985212475535
1.9709999999999999,1.7008120999999998,0.007875409826145211
1.9809999999999999,1.7108120999999998,0.00796250540684419
1.9909999999999999,1.7208120999999998,0.00804582483475548
2.001,1.7308120999999999,0.00812493222721759
2.011,1.7408121,0.00820263339656591
2.021,1.7508120999999999,0.008278437014106091
2.031,1.7608121,0.008346885940038556
2.041,1.7708121,0.008409517921711152
2.051,1.7808121000000001,0.008471381509060853
2.061,1.7908121,0.00853615484313853
2.0709999999999997,1.8008120999999997,0.008604336491159392
2.081,1.8108121,0.00867249720832188
2.0909999999999997,1.8208120999999997,0.008738086212081253
2.101,1.8308121,0.008799134301675674
2.1109999999999998,1.8408120999999997,0.008854733158176432
2.121,1.8508121,0.008902664867317615
2.131,1.8608120999999997,0.008940997964600517
2.141,1.8708121,0.008983140250381636
2.151,1.8808120999999998,0.009029587887236224
2.161,1.8908121,0.00904114375400588
2.171,1.9008120999999998,0.009060794559475607
2.181,1.9108121,0.009042449694296753
2.191,1.9208120999999998,0.009058071158440657
2.201,1.9308121,0.00904756395691867
2.211,1.9408120999999998,0.009043366697165562
2.221,1.9508121,0.009030347854728829
2.231,1.9608120999999998,0.009035707114944152
2.241,1.9708121,0.009030802851358969
2.251,1.9808120999999999,0.00902749208291374
2.261,1.9908121,0.009017831320839392
