tot_nrg/Ev,col_nrg/Ev,integral_cross_section/A^2
2.0709999999999997,1.7861287999999997,1.7286110172327288e-07
2.081,1.7961288,9.130047156667329e-07
2.0909999999999997,1.8061287999999998,2.981051084592996e-06
2.101,1.8161288,7.787539155130833e-06
2.1109999999999998,1.8261287999999998,1.764509504728589e-05
2.121,1.8361288,3.583728819887326e-05
2.131,1.8461287999999998,6.664974933100266e-05
2.141,1.8561288,0.0001146410699466068
2.151,1.8661287999999998,0.0001825236048417967
2.161,1.8761288,0.0002705333317584691
2.171,1.8861287999999998,0.0003772133187329654
2.181,1.8961288,0.0004978904871759644
2.191,1.9061287999999998,0.0006281454244082122
2.201,1.9161288,0.0007610356028020975
2.211,1.9261287999999999,0.0008921979584938982
2.221,1.9361288,0.0010162624080579188
2.231,1.9461287999999999,0.001133378479449786
2.241,1.9561288000000001,0.001236530794306138
2.251,1.9661288,0.0013384671474081004
2.261,1.9761288000000001,0.0013922583840442996
