tot_nrg/Ev,col_nrg/Ev,integral_cross_section/A^2
1.071,0.7861288,1.5686569414822076e-08
1.081,0.7961288,1.14276176640273e-07
1.091,0.8061288,3.99757106739506e-07
1.101,0.8161288,1.0825499795087245e-06
1.111,0.8261288,2.487719178269001e-06
1.121,0.8361288,5.211715530137102e-06
1.131,0.8461288,1.0033617564138544e-05
1.141,0.8561288,1.823727974181416e-05
1.151,0.8661288,3.14580507208285e-05
1.161,0.8761288,5.173021876004764e-05
1.171,0.8861288,8.181914432238157e-05
1.181,0.8961288000000001,0.00012392874526171132
1.1909999999999998,0.9061287999999998,0.0001802326570834248
1.2009999999999998,0.9161287999999999,0.00025285948317339184
1.2109999999999999,0.9261287999999999,0.0003425833916235538
1.2209999999999999,0.9361287999999999,0.0004503093811702971
1.2309999999999999,0.9461287999999999,0.0005760232767244463
1.2409999999999999,0.9561287999999999,0.0007195866847216865
1.251,0.9661287999999999,0.0008820011927271075
1.261,0.9761287999999999,0.001062069342421236
1.271,0.9861287999999999,0.0012598228237327839
1.281,0.9961287999999999,0.0014725796098348125
1.291,1.0061288,0.0016987539291798703
1.301,1.0161288,0.0019357502048598539
1.311,1.0261288,0.002181658371379052
1.321,1.0361288,0.002435017556676399
1.331,1.0461288,0.002696684620369216
1.341,1.0561288,0.0029684600210875857
1.351,1.0661288,0.003255976028450849
1.361,1.0761288,0.0035496059984047312
1.371,1.0861288,0.0038252616335168865
1.381,1.0961288,0.004053899322879961
1.391,1.1061288,0.004221193682468162
1.401,1.1161288,0.004322793335835828
1.411,1.1261288,0.004362081685863642
1.421,1.1361288,0.004347112043232359
1.431,1.1461288,0.0042904603463688375
1.4409999999999998,1.1561287999999998,0.00420527656153869
1.4509999999999998,1.1661287999999999,0.004105530283337366
1.4609999999999999,1.1761287999999999,0.003999762087202788
1.4709999999999999,1.1861287999999999,0.0038859398556326673
1.4809999999999999,1.1961287999999999,0.0037609213908897173
1.4909999999999999,1.2061288,0.003628533770505435
1.501,1.2161288,0.0034992543395221064
1.511,1.2261288,0.003383955044845889
1.521,1.2361288,0.003293076529481183
1.531,1.2461288,0.0032336043315241898
1.541,1.2561288,0.0032081249667727857
1.551,1.2661288,0.003214895710260818
1.561,1.2761288,0.0032473133665329177
1.571,1.2861288,0.003297451623988314
1.581,1.2961288,0.0033579396698443223
1.591,1.3061288,0.0034232200981498405
1.601,1.3161288,0.003489601098142315
1.611,1.3261288,0.0035533408594010368
1.621,1.3361288,0.0036111121936490717
1.631,1.3461288,0.003660247262625917
1.641,1.3561288,0.003698437499428137
1.651,1.3661288,0.003724459842539022
1.661,1.3761288,0.0037387306777473864
1.671,1.3861288,0.00374277607096947
1.681,1.3961288,0.0037399362379267535
1.6909999999999998,1.4061287999999998,0.0037350977652793535
1.7009999999999998,1.4161287999999999,0.003733045663873266
1.7109999999999999,1.4261287999999999,0.0037400367710118698
1.7209999999999999,1.4361287999999999,0.003759727427792192
1.7309999999999999,1.4461287999999999,0.003794876619101309
1.7409999999999999,1.4561288,0.0038458633329668448
1.751,1.4661288,0.003910447124215505
1.761,1.4761288,0.00398467858237469
1.771,1.4861288,0.004061507950171532
1.781,1.4961288,0.004138316335364103
1.791,1.5061288,0.004219407078589085
1.801,1.5161288,0.004299037221784984
1.811,1.5261288,0.004370983439022122
1.821,1.5361288,0.004438720732447477
1.831,1.5461288,0.00450801257158877
1.841,1.5561288,0.004581344128853521
1.851,1.5661288,0.004656340564071177
1.861,1.5761288,0.00472598281483678
1.871,1.5861288,0.004784224180233397
1.881,1.5961288,0.004831899095764224
1.891,1.6061288,0.0048762699529303465
1.901,1.6161288,0.00492444119873787
1.911,1.6261288,0.004982789370628152
1.921,1.6361288,0.005054020428042008
1.931,1.6461288,0.00513428977831453
1.9409999999999998,1.6561287999999998,0.005217551020900112
1.9509999999999998,1.6661287999999999,0.005300855436626814
1.9609999999999999,1.6761287999999999,0.0053829810761634065
1.9709999999999999,1.6861287999999999,0.005463483702134925
1.9809999999999999,1.6961287999999999,0.0055407912736432675
1.9909999999999999,1.7061288,0.005612241965848253
2.001,1.7161288,0.005676688688379635
2.011,1.7261288000000001,0.0057341071194383034
2.021,1.7361288,0.005784746520289375
2.031,1.7461288000000001,0.0058290589767332045
2.041,1.7561288,0.005868938126221393
2.051,1.7661288000000002,0.005907176636594967
2.061,1.7761288,0.005946853981448354
2.0709999999999997,1.7861287999999997,0.005989798638123922
2.081,1.7961288,0.0060357189332570895
2.0909999999999997,1.8061287999999998,0.006083427430989933
2.101,1.8161288,0.0061310370194532105
2.1109999999999998,1.8261287999999998,0.0061771051864905335
2.121,1.8361288,0.006220856211653124
2.131,1.8461287999999998,0.006262644991616035
2.141,1.8561288,0.00630341513621453
2.151,1.8661287999999998,0.006355865741632587
2.161,1.8761288,0.006402801978705026
2.171,1.8861287999999998,0.006437307579361952
2.181,1.8961288,0.0064748083001930495
2.191,1.9061287999999998,0.006508984337455569
2.201,1.9161288,0.006539395799805733
2.211,1.9261287999999999,0.006565477330163377
2.221,1.9361288,0.0065832789243240215
2.231,1.9461287999999999,0.006616735220568296
2.241,1.9561288000000001,0.00663483490684646
2.251,1.9661288,0.006652054752033271
2.261,1.9761288000000001,0.006671414582658991
