tot_nrg/Ev,col_nrg/Ev,integral_cross_section/A^2
2.181,1.8961288,0.00011810468233459844
2.191,1.9061287999999998,0.00013129975313957892
2.201,1.9161288,0.0001402316414926098
2.211,1.9261287999999999,0.00015705781644510708
2.221,1.9361288,0.00017177423716936807
2.231,1.9461287999999999,0.00017815687427460264
2.241,1.9561288000000001,0.00015328006548215222
2.251,1.9661288,0.00016054434462766076
2.261,1.9761288000000001,0.00016188658405444242
