tot_nrg/Ev,col_nrg/Ev,integral_cross_section/A^2
0.871,0.6008121,3.50186643404542e-08
0.8809999999999999,0.6108120999999999,2.6362767085111025e-07
0.8909999999999999,0.6208120999999999,1.030676057334235e-06
0.9009999999999999,0.6308120999999999,3.039369866499972e-06
0.9109999999999999,0.6408120999999999,8.093634262388237e-06
0.9209999999999999,0.6508120999999999,1.974829610130296e-05
0.9309999999999999,0.6608120999999999,4.620295491692504e-05
0.941,0.6708120999999999,0.00010478383107736998
0.951,0.6808120999999999,0.00023432749006395838
0.961,0.6908120999999999,0.0005015994439072093
0.971,0.7008120999999999,0.0009829880449287636
0.981,0.7108121,0.0016611573145210007
0.991,0.7208121,0.0024059957976148073
1.001,0.7308120999999999,0.0031270190896878934
1.011,0.7408120999999999,0.003804029828837467
1.021,0.7508120999999999,0.004442360721518843
1.031,0.7608120999999999,0.005073735900457742
1.041,0.7708120999999999,0.005723832887902826
1.051,0.7808120999999999,0.006454155249090121
1.061,0.7908120999999999,0.00732377247285239
1.071,0.8008120999999999,0.008418198304010388
1.081,0.8108120999999999,0.00979900924013707
1.091,0.8208120999999999,0.011488601310478302
1.101,0.8308120999999999,0.013444211021705621
1.111,0.8408121,0.015595528880051857
1.121,0.8508121,0.017885023590393016
1.131,0.8608121,0.020237104840099655
1.141,0.8708121,0.022559160289169565
1.151,0.8808121,0.02474520303862564
1.161,0.8908121,0.02668113146466064
1.171,0.9008121,0.028272487320687892
1.181,0.9108121,0.029465371427946793
1.1909999999999998,0.9208120999999998,0.030257893521808167
1.2009999999999998,0.9308120999999998,0.030700579036256545
1.2109999999999999,0.9408120999999998,0.030866063906950313
1.2209999999999999,0.9508120999999998,0.03083653175183196
1.2309999999999999,0.9608120999999998,0.03068948674282554
1.2409999999999999,0.9708120999999998,0.03049126589640118
1.251,0.9808120999999999,0.03030155933807371
1.261,0.9908120999999999,0.030167764274933784
1.271,1.0008120999999999,0.030124379629536586
1.281,1.0108120999999999,0.030206839498408345
1.291,1.0208121,0.030423541192145038
1.301,1.0308121,0.03079283055202071
1.311,1.0408121,0.03129196722940268
1.321,1.0508121,0.031902650301203775
1.331,1.0608121,0.03256708187726805
1.341,1.0708121,0.03320965478230828
1.351,1.0808121,0.03372245909205864
1.361,1.0908121,0.033969263408797704
1.371,1.1008121,0.03392632731615783
1.381,1.1108121,0.03370912135688286
1.391,1.1208121,0.0334709816213718
1.401,1.1308121,0.03330730115137453
1.411,1.1408121,0.03324694804605258
1.421,1.1508121,0.033297130508402994
1.431,1.1608121,0.03346451326043815
1.4409999999999998,1.1708120999999998,0.03379052586376553
1.4509999999999998,1.1808120999999998,0.034336179257546534
1.4609999999999999,1.1908120999999998,0.03513037947195492
1.4709999999999999,1.2008120999999998,0.03603002399985014
1.4809999999999999,1.2108120999999998,0.03681442734320153
1.4909999999999999,1.2208120999999998,0.037398202265317246
1.501,1.2308120999999999,0.03779676448907234
1.511,1.2408120999999999,0.03805663972683487
1.521,1.2508120999999999,0.03820985211902669
1.531,1.2608120999999999,0.03827873976246536
1.541,1.2708121,0.03828717893903771
1.551,1.2808121,0.038245631895903465
1.561,1.2908121,0.03817081754859365
1.571,1.3008121,0.03806818249583633
1.581,1.3108121,0.037942810512749336
1.591,1.3208121,0.03780857886885084
1.601,1.3308121,0.037681498605004124
1.611,1.3408121,0.03757971959692364
1.621,1.3508121,0.03752290058192044
1.631,1.3608121,0.03751896795687027
1.641,1.3708121,0.03756818312129189
1.651,1.3808121,0.037662375516634164
1.661,1.3908121,0.037775155983359704
1.671,1.4008121,0.037883738348007054
1.681,1.4108121,0.03796532281278435
1.6909999999999998,1.4208120999999998,0.03801127834379338
1.7009999999999998,1.4308120999999998,0.038022530919704894
1.7109999999999999,1.4408120999999998,0.03800780047024293
1.7209999999999999,1.4508120999999998,0.037970842153010984
1.7309999999999999,1.4608120999999998,0.03791780884705865
1.7409999999999999,1.4708120999999998,0.03784599164834052
1.751,1.4808120999999999,0.03774745005995819
1.761,1.4908120999999999,0.03761378352112527
1.771,1.5008120999999999,0.037405570451723144
1.781,1.5108120999999999,0.037044450834574506
1.791,1.5208121,0.03649721326576619
1.801,1.5308121,0.03588750497693418
1.811,1.5408121,0.035335366351433146
1.821,1.5508121,0.03487530846178002
1.831,1.5608121,0.03451426316345445
1.841,1.5708121,0.03424058829364044
1.851,1.5808121,0.03404374693410029
1.861,1.5908121,0.03390754165193683
1.871,1.6008121,0.03381256840633371
1.881,1.6108121,0.033742393415584396
1.891,1.6208121,0.03367144648666665
1.901,1.6308121,0.03359600988106828
1.911,1.6408121,0.033499488951690665
1.921,1.6508121,0.033328379437105905
1.931,1.6608121,0.03305832669436972
1.9409999999999998,1.6708120999999998,0.03272026686123489
1.9509999999999998,1.6808120999999998,0.032352788748815677
1.9609999999999999,1.6908120999999998,0.03197236920338859
1.9709999999999999,1.7008120999999998,0.03157662745868454
1.9809999999999999,1.7108120999999998,0.03116037558740793
1.9909999999999999,1.7208120999999998,0.030727812302552594
2.001,1.7308120999999999,0.030285901197387156
2.011,1.7408121,0.02984531576256208
2.021,1.7508120999999999,0.029421300083935422
2.031,1.7608121,0.029028952708390936
2.041,1.7708121,0.028683797334880974
2.051,1.7808121000000001,0.028391028269969427
2.061,1.7908121,0.02814427560122722
2.0709999999999997,1.8008120999999997,0.027928173443296334
2.081,1.8108121,0.027720840540696463
2.0909999999999997,1.8208120999999997,0.02750198619867019
2.101,1.8308121,0.027264586679521325
2.1109999999999998,1.8408120999999997,0.027010331140400634
2.121,1.8508121,0.026743727205331587
2.131,1.8608120999999997,0.02647708601587924
2.141,1.8708121,0.026206934943667055
2.151,1.8808120999999998,0.025872104097327635
2.161,1.8908121,0.02556331998574393
2.171,1.9008120999999998,0.025243125338660393
2.181,1.9108121,0.024941763015013177
2.191,1.9208120999999998,0.02459769376835331
2.201,1.9308121,0.0243491563020304
2.211,1.9408120999999998,0.024073738329587018
2.221,1.9508121,0.02382633033994344
2.231,1.9608120999999998,0.023564469563212318
2.241,1.9708121,0.023298243606099625
2.251,1.9808120999999999,0.023068620551028724
2.261,1.9908121,0.02281626087895077
