tot_nrg/Ev,col_nrg/Ev,integral_cross_section/A^2
1.631,1.3461288,1.6399817052479956e-06
1.641,1.3561288,7.893007753898952e-06
1.651,1.3661288,2.296795360932457e-05
1.661,1.3761288,5.240767635900518e-05
1.671,1.3861288,0.00010333205808686433
1.681,1.3961288,0.00018442322148001002
1.6909999999999998,1.4061287999999998,0.0003054824658874259
1.7009999999999998,1.4161287999999999,0.00047692502097471595
1.7109999999999999,1.4261287999999999,0.0007085639149541491
1.7209999999999999,1.4361287999999999,0.0010059272012976942
1.7309999999999999,1.4461287999999999,0.0013707323248400433
1.7409999999999999,1.4561288,0.0017990446506157551
1.751,1.4661288,0.0022785106042052354
1.761,1.4761288,0.002792328293913261
1.771,1.4861288,0.003318904199654021
1.781,1.4961288,0.0038329980013510566
1.791,1.5061288,0.004329918080194682
1.801,1.5161288,0.0048250161837291436
1.811,1.5261288,0.005324156783946788
1.821,1.5361288,0.00581133038414929
1.831,1.5461288,0.006269401798943472
1.841,1.5561288,0.006668523831627804
1.851,1.5661288,0.006993988153546554
1.861,1.5761288,0.007245285214415504
1.871,1.5861288,0.007380298889873432
1.881,1.5961288,0.007414596852906421
1.891,1.6061288,0.007422597900686788
1.901,1.6161288,0.007433597229392453
1.911,1.6261288,0.007444039908765898
1.921,1.6361288,0.007430150124536798
1.931,1.6461288,0.007363717228480312
1.9409999999999998,1.6561287999999998,0.007237732781947778
1.9509999999999998,1.6661287999999999,0.007068539770266092
1.9609999999999999,1.6761287999999999,0.006881975458557494
1.9709999999999999,1.6861287999999999,0.006701046007082668
1.9809999999999999,1.6961287999999999,0.006539768064112868
1.9909999999999999,1.7061288,0.006398065423223764
2.001,1.7161288,0.006269636141317185
2.011,1.7261288000000001,0.006149976427541236
2.021,1.7361288,0.006033967383309575
2.031,1.7461288000000001,0.0059181552502939275
2.041,1.7561288,0.005801755799328959
2.051,1.7661288000000002,0.005685257005751751
2.061,1.7761288,0.005567244863040821
2.0709999999999997,1.7861287999999997,0.005448180368854252
2.081,1.7961288,0.005327309820546322
2.0909999999999997,1.8061287999999998,0.005206302747190536
2.101,1.8161288,0.005087902644701218
2.1109999999999998,1.8261287999999998,0.004974720368984281
2.121,1.8361288,0.004869317369721095
2.131,1.8461287999999998,0.004774900370437482
2.141,1.8561288,0.004694938703273472
2.151,1.8661287999999998,0.004609849819736686
2.161,1.8761288,0.004528851460379159
2.171,1.8861287999999998,0.00450362181124329
2.181,1.8961288,0.004477468716268257
2.191,1.9061287999999998,0.004456407854391015
2.201,1.9161288,0.004470252383164053
2.211,1.9261287999999999,0.004477998263085639
2.221,1.9361288,0.004506529609229595
2.231,1.9461287999999999,0.004518710618998466
2.241,1.9561288000000001,0.004541285300082554
2.251,1.9661288,0.004560779929996685
2.261,1.9761288000000001,0.004585934702779982
