tot_nrg/Ev,col_nrg/Ev,integral_cross_section/A^2
1.4709999999999999,1.2008120999999998,1.7632018527615718e-06
1.4809999999999999,1.2108120999999998,8.086559492159535e-06
1.4909999999999999,1.2208120999999998,2.2928791428446146e-05
1.501,1.2308120999999999,5.306977181117352e-05
1.511,1.2408120999999999,0.00010889879302594983
1.521,1.2508120999999999,0.00020412885102718534
1.531,1.2608120999999999,0.00035376893696665787
1.541,1.2708121,0.0005688814985415065
1.551,1.2808121,0.0008539301365842452
1.561,1.2908121,0.001201887746978868
1.571,1.3008121,0.0015965756493414953
1.581,1.3108121,0.00202103055448326
1.591,1.3208121,0.0024532127767979152
1.601,1.3308121,0.0028713496722841112
1.611,1.3408121,0.003260273335791515
1.621,1.3508121,0.003603763717668909
1.631,1.3608121,0.003893839488986851
1.641,1.3708121,0.004123295251332402
1.651,1.3808121,0.004291610680965578
1.661,1.3908121,0.004403464837798714
1.671,1.4008121,0.004463623869513916
1.681,1.4108121,0.004480116404687903
1.6909999999999998,1.4208120999999998,0.004457978116907464
1.7009999999999998,1.4308120999999998,0.004403257428792204
1.7109999999999999,1.4408120999999998,0.004320825346563473
1.7209999999999999,1.4508120999999998,0.0042185508160640485
1.7309999999999999,1.4608120999999998,0.0041036353823959365
1.7409999999999999,1.4708120999999998,0.003988269063382069
1.751,1.4808120999999999,0.003885338649097792
1.761,1.4908120999999999,0.003808509972666541
1.771,1.5008120999999999,0.0037745923290261117
1.781,1.5108120999999999,0.0038006684412017276
1.791,1.5208121,0.003889747548152664
1.801,1.5308121,0.003991759658330705
1.811,1.5408121,0.00405262713237823
1.821,1.5508121,0.0040585738521236965
1.831,1.5608121,0.0040256693674800515
1.841,1.5708121,0.003983792279756655
1.851,1.5808121,0.0039578972994296
1.861,1.5908121,0.003966539147035003
1.871,1.6008121,0.004011136523601226
1.881,1.6108121,0.0040843899037837665
1.891,1.6208121,0.004174537634937221
1.901,1.6308121,0.004270425114378106
1.911,1.6408121,0.004364285273562082
1.921,1.6508121,0.004445431934624412
1.931,1.6608121,0.004506200104558605
1.9409999999999998,1.6708120999999998,0.004545836064189136
1.9509999999999998,1.6808120999999998,0.004564567080315183
1.9609999999999999,1.6908120999999998,0.004563357341794388
1.9709999999999999,1.7008120999999998,0.004547068985439072
1.9809999999999999,1.7108120999999998,0.004526225445968723
1.9909999999999999,1.7208120999999998,0.004513054005759375
2.001,1.7308120999999999,0.0045173300066797374
2.011,1.7408121,0.004543585387536672
2.021,1.7508120999999999,0.004594453784433486
2.031,1.7608121,0.004667407903844118
2.041,1.7708121,0.004756006816902736
2.051,1.7808121000000001,0.004856106845425677
2.061,1.7908121,0.004966533039029704
2.0709999999999997,1.8008120999999997,0.005084567518957581
2.081,1.8108121,0.00520636469502291
2.0909999999999997,1.8208120999999997,0.005327178728476089
2.101,1.8308121,0.005441335457128474
2.1109999999999998,1.8408120999999997,0.005545820136801259
2.121,1.8508121,0.0056383159241803205
2.131,1.8608120999999997,0.005719481194688389
2.141,1.8708121,0.005785275221453914
2.151,1.8808120999999998,0.00584706466448087
2.161,1.8908121,0.005897574143261099
2.171,1.9008120999999998,0.0059682271009613925
2.181,1.9108121,0.006068055153775498
2.191,1.9208120999999998,0.006118639082947049
2.201,1.9308121,0.006231234677260877
2.211,1.9408120999999998,0.006323647030682371
2.221,1.9508121,0.006433622492503993
2.231,1.9608120999999998,0.00654086787388906
2.241,1.9708121,0.006644674905129369
2.251,1.9808120999999999,0.0067652478699346775
2.261,1.9908121,0.00688252629033753
