tot_nrg/Ev,col_nrg/Ev,integral_cross_section/A^2
1.281,0.9961287999999999,7.74434064198916e-08
1.291,1.0061288,1.3934884451350672e-06
1.281,1.0108120999999999,2.8251348902979964e-07
1.301,1.0161288,6.9507298789943e-06
1.291,1.0208121,1.7312220186042152e-06
1.311,1.0261288,2.4546157683301958e-05
1.301,1.0308121,6.689921396438989e-06
1.321,1.0361288,7.563630701180918e-05
1.311,1.0408121,2.0873680566698115e-05
1.331,1.0461288,0.000211165816294529
1.321,1.0508121,6.234081466561393e-05
1.341,1.0561288,0.0005426834702572376
1.331,1.0608121,0.00017128747774188886
1.351,1.0661288,0.0012491900659354984
1.341,1.0708121,0.0004409846135754613
1.361,1.0761288,0.0024244351608211923
1.351,1.0808121,0.0010266057950804668
1.371,1.0861288,0.003916839527848726
1.361,1.0908121,0.0020431186905365216
1.381,1.0961288,0.005525570433548451
1.371,1.1008121,0.0034151687367471335
1.391,1.1061288,0.007157627920224851
1.381,1.1108121,0.0049999633813700645
1.401,1.1161288,0.008735591844860353
1.391,1.1208121,0.006703587842813488
1.411,1.1261288,0.010312433876579001
1.401,1.1308121,0.008422835196978489
1.421,1.1361288,0.011900226958487319
1.411,1.1408121,0.01019095020517496
1.431,1.1461288,0.013361921528709108
1.421,1.1508121,0.011978135315908961
1.4409999999999998,1.1561287999999998,0.014790097333442335
1.431,1.1608121,0.013604163126746713
1.4509999999999998,1.1661287999999999,0.016240563410208447
1.4409999999999998,1.1708120999999998,0.015143869269630586
1.4609999999999999,1.1761287999999999,0.017459915147283237
1.4509999999999998,1.1808120999999998,0.016630167293354422
1.4709999999999999,1.1861287999999999,0.018318054583374266
1.4609999999999999,1.1908120999999998,0.0177527859725365
1.4809999999999999,1.1961287999999999,0.01903251848944659
1.4709999999999999,1.2008120999999998,0.018374915302877236
1.4909999999999999,1.2061288,0.019838633429603493
1.4809999999999999,1.2108120999999998,0.01877437021069155
1.501,1.2161288,0.02085366250711895
1.4909999999999999,1.2208120999999998,0.01925054274453168
1.511,1.2261288,0.022124594812813137
1.501,1.2308120999999999,0.01995813333569974
1.521,1.2361288,0.023641931439702484
1.511,1.2408120999999999,0.020965891261367824
1.531,1.2461288,0.02533182386582233
1.521,1.2508120999999999,0.02228197139403898
1.541,1.2561288,0.027064138403234225
1.531,1.2608120999999999,0.023847429209401194
1.551,1.2661288,0.02871034818925769
1.541,1.2708121,0.02554888647523445
1.561,1.2761288,0.030197677422471692
1.551,1.2808121,0.027283442691253535
1.571,1.2861288,0.0315273901280483
1.561,1.2908121,0.028982452159257658
1.581,1.2961288,0.032744827811831814
1.571,1.3008121,0.0306142083891739
1.591,1.3061288,0.033898580463075645
1.581,1.3108121,0.032164797734186346
1.601,1.3161288,0.035025707487458466
1.591,1.3208121,0.033631185129427595
1.611,1.3261288,0.036143210130340914
1.601,1.3308121,0.03501171327288497
1.621,1.3361288,0.037250554053933085
1.611,1.3408121,0.03630349059165507
1.631,1.3461288,0.03834844301911807
1.621,1.3508121,0.037494388399087905
1.641,1.3561288,0.03942988971374664
1.631,1.3608121,0.03858574900365692
1.651,1.3661288,0.0404891040149567
1.641,1.3708121,0.03958245154091246
1.661,1.3761288,0.04151303507918618
1.651,1.3808121,0.040487737851262286
1.671,1.3861288,0.04250591478510877
1.661,1.3908121,0.04130442537797294
1.681,1.3961288,0.04348759688286344
1.671,1.4008121,0.042055698444200575
1.6909999999999998,1.4061287999999998,0.04448035805146687
1.681,1.4108121,0.04278411631233227
1.7009999999999998,1.4161287999999999,0.04550796743212446
1.6909999999999998,1.4208120999999998,0.04353793252292482
1.7109999999999999,1.4261287999999999,0.04658316593843357
1.7009999999999998,1.4308120999999998,0.04435960693845135
1.7209999999999999,1.4361287999999999,0.04771726640617881
1.7109999999999999,1.4408120999999998,0.04527960101657024
1.7309999999999999,1.4461287999999999,0.04891550087630518
1.7209999999999999,1.4508120999999998,0.04631934116788264
1.7409999999999999,1.4561288,0.05019113809922287
1.7309999999999999,1.4608120999999998,0.04749003445274199
1.751,1.4661288,0.051545843863580326
1.7409999999999999,1.4708120999999998,0.04881198220522651
1.761,1.4761288,0.05296505641978674
1.751,1.4808120999999999,0.05028310340137562
1.771,1.4861288,0.0543486958009269
1.761,1.4908120999999999,0.05188532522153484
1.781,1.4961288,0.05542104833699926
1.771,1.5008120999999999,0.053510484536160904
1.791,1.5061288,0.05604311549076234
1.781,1.5108120999999999,0.05484969428584208
1.801,1.5161288,0.05644399150876965
1.791,1.5208121,0.05571480041705284
1.811,1.5261288,0.0568214647311114
1.801,1.5308121,0.056318566693635545
1.821,1.5361288,0.05721028200104165
1.811,1.5408121,0.05686522310932931
1.831,1.5461288,0.05766419277127837
1.821,1.5508121,0.05736923386996743
1.841,1.5561288,0.05805988805123212
1.831,1.5608121,0.057881692615720015
1.851,1.5661288,0.058499166448027065
1.841,1.5708121,0.05826778304447178
1.861,1.5761288,0.05896899717459481
1.851,1.5808121,0.0585953639783615
1.871,1.5861288,0.059376441870691236
1.861,1.5908121,0.05888382470434102
1.881,1.5961288,0.059922940439832685
1.871,1.6008121,0.05908374592142477
1.891,1.6061288,0.06067705504804546
1.881,1.6108121,0.05941106915613312
1.901,1.6161288,0.06145350001270869
1.891,1.6208121,0.05994744543412849
1.911,1.6261288,0.06208505942789981
1.901,1.6308121,0.06052812641941813
1.921,1.6361288,0.06251725375828796
1.911,1.6408121,0.061005614053894715
1.931,1.6461288,0.06280466114100351
1.921,1.6508121,0.06134988119813082
1.9409999999999998,1.6561287999999998,0.06302901143553077
1.931,1.6608121,0.06163750803526945
1.9509999999999998,1.6661287999999999,0.063242109479922
1.9409999999999998,1.6708120999999998,0.06194643122596784
1.9609999999999999,1.6761287999999999,0.06347169752164185
1.9509999999999998,1.6808120999999998,0.062308610541099325
1.9709999999999999,1.6861287999999999,0.06372380227647662
1.9609999999999999,1.6908120999999998,0.06272697752870911
1.9809999999999999,1.6961287999999999,0.06397268664835451
1.9709999999999999,1.7008120999999998,0.06319039327347804
1.9909999999999999,1.7061288,0.06420847688238826
1.9809999999999999,1.7108120999999998,0.0636606272825551
2.001,1.7161288,0.0644305881333554
1.9909999999999999,1.7208120999999998,0.06410531581680548
2.011,1.7261288000000001,0.06462812707707387
2.001,1.7308120999999999,0.06450780101172995
2.021,1.7361288,0.06480956709088248
2.011,1.7408121,0.06485412626927634
2.031,1.7461288000000001,0.06500989218978573
2.021,1.7508120999999999,0.06514770823123914
2.041,1.7561288,0.06524031398766843
2.031,1.7608121,0.06540268195752949
2.051,1.7661288000000002,0.06547754470471655
2.041,1.7708121,0.06561608442963904
2.061,1.7761288,0.06568373532527268
2.051,1.7808121000000001,0.06576654802634561
2.0709999999999997,1.7861287999999997,0.06583771639323495
2.061,1.7908121,0.06583330275758328
2.081,1.7961288,0.06592837760854044
2.0709999999999997,1.8008120999999997,0.06581763372876104
2.0909999999999997,1.8061287999999998,0.06595638861861504
2.081,1.8108121,0.0657341274548204
2.101,1.8161288,0.06593145568520661
2.0909999999999997,1.8208120999999997,0.06561244755918515
2.1109999999999998,1.8261287999999998,0.0658679634002753
2.101,1.8308121,0.06547690126068893
2.121,1.8361288,0.06577846286586597
2.1109999999999998,1.8408120999999997,0.06534571631914095
2.131,1.8461287999999998,0.06567100792654046
2.121,1.8508121,0.06522191947328325
2.141,1.8561288,0.06554036825247496
2.131,1.8608120999999997,0.06510396308614512
2.151,1.8661287999999998,0.06547839401896666
2.141,1.8708121,0.06500011457432377
2.161,1.8761288,0.06544155202230459
2.151,1.8808120999999998,0.06501829078078344
2.171,1.8861287999999998,0.0654518186972976
2.161,1.8908121,0.06496622156497021
2.181,1.8961288,0.06549453048853612
2.171,1.9008120999999998,0.06497239801297951
2.191,1.9061287999999998,0.06563218511452855
2.181,1.9108121,0.0650391669661419
2.201,1.9161288,0.06573922906177704
2.191,1.9208120999999998,0.06526646806242134
2.211,1.9261287999999999,0.06585549187718591
2.201,1.9308121,0.06536740443264813
2.221,1.9361288,0.0659561468540315
2.211,1.9408120999999998,0.0655296245254978
2.231,1.9461287999999999,0.06616291926337721
2.221,1.9508121,0.06564754713128329
2.241,1.9561288000000001,0.06620586183085955
2.231,1.9608120999999998,0.06580374844000218
2.251,1.9661288,0.06629521801636144
2.241,1.9708121,0.06591521512896947
2.261,1.9761288000000001,0.06630451522308414
2.251,1.9808120999999999,0.06601552796380504
2.261,1.9908121,0.06598884521891471
