tot_nrg/Ev,col_nrg/Ev,integral_cross_section/A^2
2.211,1.9261287999999999,1.8384759174249896e-07
2.221,1.9361288,9.88656639614873e-07
2.231,1.9461287999999999,2.7379507032910374e-06
2.241,1.9561288000000001,6.053401491405621e-06
2.251,1.9661288,1.1920858029135663e-05
2.261,1.9761288000000001,2.1042665413232557e-05
