tot_nrg/Ev,col_nrg/Ev,integral_cross_section/A^2
2.061,1.7908121,5.0186180434682295e-09
2.0709999999999997,1.8008120999999997,4.087346779921783e-08
2.081,1.8108121,1.5991809925772627e-07
2.0909999999999997,1.8208120999999997,4.80054055419502e-07
2.101,1.8308121,1.2215721553848591e-06
2.1109999999999998,1.8408120999999997,2.769784787575722e-06
2.121,1.8508121,5.662950409324031e-06
2.131,1.8608120999999997,1.0582197034200858e-05
2.141,1.8708121,1.8229147605855206e-05
2.151,1.8808120999999998,2.944455605757623e-05
2.161,1.8908121,4.52876984336675e-05
2.171,1.9008120999999998,6.682144784829147e-05
2.181,1.9108121,9.533580279390344e-05
2.191,1.9208120999999998,0.00013050581455439092
2.201,1.9308121,0.00016947205655908187
2.211,1.9408120999999998,0.00021157843996666127
2.221,1.9508121,0.0002538854032219589
2.231,1.9608120999999998,0.0002958407175301808
2.241,1.9708121,0.000336377995579079
2.251,1.9808120999999999,0.0003766043796670216
2.261,1.9908121,0.0004159548618829886
