tot_nrg/Ev,col_nrg/Ev,integral_cross_section/A^2
1.7309999999999999,1.4461287999999999,1.7277024979124783e-09
1.7409999999999999,1.4561288,3.741706692296958e-08
1.751,1.4661288,2.67807747488129e-07
1.761,1.4761288,1.4282934648564733e-06
1.771,1.4861288,6.1240830427570785e-06
1.781,1.4961288,1.911671003548214e-05
1.791,1.5061288,4.059993151836636e-05
1.801,1.5161288,6.437209699332461e-05
1.811,1.5261288,8.629166459192631e-05
1.821,1.5361288,0.00010607320307991485
1.831,1.5461288,0.00012428560727961437
1.841,1.5561288,0.00014143361257483943
1.851,1.5661288,0.0001575038980350842
1.861,1.5761288,0.00017108085699859738
1.871,1.5861288,0.00017975856819843006
1.881,1.5961288,0.00018084950642369827
1.891,1.6061288,0.00017518218290810993
1.901,1.6161288,0.0001662334982822447
1.911,1.6261288,0.00015819447062207466
1.921,1.6361288,0.00015510681957367953
1.931,1.6461288,0.00015752538622254884
1.9409999999999998,1.6561287999999998,0.00016331481143134108
1.9509999999999998,1.6661287999999999,0.00017042824899269392
1.9609999999999999,1.6761287999999999,0.00017810590585482064
1.9709999999999999,1.6861287999999999,0.00018612927239045591
1.9809999999999999,1.6961287999999999,0.00019480315943415063
1.9909999999999999,1.7061288,0.0002039926811377361
2.001,1.7161288,0.00021305567055310832
2.011,1.7261288000000001,0.00022183720192209955
2.021,1.7361288,0.00023071988125690106
2.031,1.7461288000000001,0.000239886304339216
2.041,1.7561288,0.0002496266828218774
2.051,1.7661288000000002,0.0002600188528077686
2.061,1.7761288,0.00027159440376619154
2.0709999999999997,1.7861287999999997,0.0002845056178128183
2.081,1.7961288,0.0002985797473809923
2.0909999999999997,1.8061287999999998,0.0003131769392217005
2.101,1.8161288,0.0003277235808907993
2.1109999999999998,1.8261287999999998,0.0003418415767819729
2.121,1.8361288,0.00035541738081546316
2.131,1.8461287999999998,0.0003683466191071096
2.141,1.8561288,0.00037910752291513253
2.151,1.8661287999999998,0.0003822474808168422
2.161,1.8761288,0.00039067155462144717
2.171,1.8861287999999998,0.000405745957661459
2.181,1.8961288,0.00041093847526655394
2.191,1.9061287999999998,0.0004203370254978543
2.201,1.9161288,0.00042884943864422606
2.211,1.9261287999999999,0.0004347189232765315
2.221,1.9361288,0.00044004268944806686
2.231,1.9461287999999999,0.00044168895622617846
2.241,1.9561288000000001,0.0004455722135836099
2.251,1.9661288,0.00044819520166909183
2.261,1.9761288000000001,0.00045109060408834214
