tot_nrg/Ev,col_nrg/Ev,integral_cross_section/A^2
0.7909999999999999,0.5061287999999999,3.8555403955622803e-10
0.8009999999999999,0.5161287999999999,1.5136620660646184e-07
0.7909999999999999,0.5208120999999999,6.643509698004715e-08
0.8109999999999999,0.5261288,1.8017990236503904e-07
0.8009999999999999,0.5308120999999999,8.461144920029962e-08
0.821,0.5361288,4.841882571899729e-07
0.8109999999999999,0.5408120999999999,2.480377449625391e-07
0.831,0.5461288,1.2692843370112974e-06
0.821,0.5508120999999999,8.931451453527404e-07
0.841,0.5561288,2.8913143804066637e-06
0.831,0.5608120999999999,1.9080703313212564e-06
0.851,0.5661288,6.817891447923149e-06
0.841,0.5708120999999999,5.003448868516297e-06
0.861,0.5761288,1.4201531158222525e-05
0.851,0.5808120999999999,1.072029182813559e-05
0.871,0.5861288,2.9032774630655684e-05
0.861,0.5908121,2.363739966073145e-05
0.8809999999999999,0.5961287999999999,5.8328486658794624e-05
0.871,0.6008121,4.8727322398370366e-05
0.8909999999999999,0.6061287999999999,0.00011201345419431488
0.8809999999999999,0.6108120999999999,9.594789212824001e-05
0.9009999999999999,0.6161287999999999,0.0002116894524221061
0.8909999999999999,0.6208120999999999,0.00018487790311725889
0.9109999999999999,0.6261287999999999,0.00039872954393093606
0.9009999999999999,0.6308120999999999,0.0003477038598434559
0.9209999999999999,0.6361287999999999,0.0007446014914963682
0.9109999999999999,0.6408120999999999,0.000645783119843941
0.9309999999999999,0.6461288,0.0013893728123644117
0.9209999999999999,0.6508120999999999,0.0011877855328470024
0.941,0.6561288,0.002619967586078731
0.9309999999999999,0.6608120999999999,0.002185759085720442
0.951,0.6661288,0.00498664026065641
0.941,0.6708120999999999,0.004065891223333688
0.961,0.6761288,0.009360386876818545
0.951,0.6808120999999999,0.007611776712025463
0.971,0.6861288,0.016304168333008292
0.961,0.6908120999999999,0.014008985332399885
0.981,0.6961288,0.02459514136550167
0.971,0.7008120999999999,0.023796634253983144
0.991,0.7061288,0.03206312973169049
0.981,0.7108121,0.03476013915998617
1.001,0.7161287999999999,0.037741931368214354
0.991,0.7208121,0.04366646684835663
1.011,0.7261287999999999,0.0420445282886445
1.001,0.7308120999999999,0.04942008321453558
1.021,0.7361287999999999,0.04538193750785975
1.011,0.7408120999999999,0.05293516879464199
1.031,0.7461287999999999,0.047980116368496355
1.021,0.7508120999999999,0.055051646985503556
1.041,0.7561287999999999,0.05058290792453546
1.031,0.7608120999999999,0.056187493345870095
1.051,0.7661287999999999,0.053413845934894885
1.041,0.7708120999999999,0.05729232490610539
1.061,0.7761288,0.05628587583235529
1.051,0.7808120999999999,0.058717496519313336
1.071,0.7861288,0.059466586189358364
1.061,0.7908120999999999,0.06026964292701625
1.081,0.7961288,0.06311327955161825
1.071,0.8008120999999999,0.06225966855649235
1.091,0.8061288,0.06672737715775712
1.081,0.8108120999999999,0.06507113440628198
1.101,0.8161288,0.06971131493346232
1.091,0.8208120999999999,0.0685553491283716
1.111,0.8261288,0.07204751227606183
1.101,0.8308120999999999,0.07223157319323573
1.121,0.8361288,0.07414403300080882
1.111,0.8408121,0.07588855801770393
1.131,0.8461288,0.07636559825966002
1.121,0.8508121,0.07960819163123402
1.141,0.8561288,0.07890516897490468
1.131,0.8608121,0.08351764929316513
1.151,0.8661288,0.08182191259598302
1.141,0.8708121,0.08763017164309056
1.161,0.8761288,0.0850753866053674
1.151,0.8808121,0.09187806601560035
1.171,0.8861288,0.08856141640826734
1.161,0.8908121,0.09611292929616895
1.181,0.8961288000000001,0.09214196682476562
1.171,0.9008121,0.10015576501499272
1.1909999999999998,0.9061287999999998,0.09567640557440703
1.181,0.9108121,0.10379297258395734
1.2009999999999998,0.9161287999999999,0.0990645830458163
1.1909999999999998,0.9208120999999998,0.1068571637418773
1.2109999999999999,0.9261287999999999,0.10225999154421844
1.2009999999999998,0.9308120999999998,0.10932461921398358
1.2209999999999999,0.9361287999999999,0.10527321447171281
1.2109999999999999,0.9408120999999998,0.11129960279513942
1.2309999999999999,0.9461287999999999,0.10815311553383838
1.2209999999999999,0.9508120999999998,0.11298282649759969
1.2409999999999999,0.9561287999999999,0.11095112369050676
1.2309999999999999,0.9608120999999998,0.114579225863696
1.251,0.9661287999999999,0.11370947613179505
1.2409999999999999,0.9708120999999998,0.11625878576477486
1.261,0.9761287999999999,0.11643598920045645
1.251,0.9808120999999999,0.11814868437346751
1.271,0.9861287999999999,0.11912314448112607
1.261,0.9908120999999999,0.12029084687126715
1.281,0.9961287999999999,0.12174021037848118
1.271,1.0008120999999999,0.12270278371653527
1.291,1.0061288,0.12425652266174084
1.281,1.0108120999999999,0.1253254141669243
1.301,1.0161288,0.1266391031501871
1.291,1.0208121,0.1280907477865424
1.311,1.0261288,0.128846048283695
1.301,1.0308121,0.13089861199357697
1.321,1.0361288,0.13082215774398948
1.311,1.0408121,0.13362299437794373
1.331,1.0461288,0.13245387008383291
1.321,1.0508121,0.13613775869254044
1.341,1.0561288,0.13356917502439047
1.331,1.0608121,0.1382626380008717
1.351,1.0661288,0.1340332939151784
1.341,1.0708121,0.1398213673216151
1.361,1.0761288,0.13407306558536644
1.351,1.0808121,0.14070597879768032
1.371,1.0861288,0.13416538039299739
1.361,1.0908121,0.14108942583688863
1.381,1.0961288,0.134518410982564
1.371,1.1008121,0.14131060037699636
1.391,1.1061288,0.13506826221401777
1.381,1.1108121,0.14146317778494436
1.401,1.1161288,0.13579917207519632
1.391,1.1208121,0.14152314129039315
1.411,1.1261288,0.13644508837188873
1.401,1.1308121,0.14154570761286683
1.421,1.1361288,0.1369965982313714
1.411,1.1408121,0.14132176955906103
1.431,1.1461288,0.13767382382639165
1.421,1.1508121,0.14099760528010918
1.4409999999999998,1.1561287999999998,0.13821869826071392
1.431,1.1608121,0.14089296307966404
1.4509999999999998,1.1661287999999999,0.1385556855248722
1.4409999999999998,1.1708120999999998,0.14077622760700687
1.4609999999999999,1.1761287999999999,0.13922592623368624
1.4509999999999998,1.1808120999999998,0.14065348754238938
1.4709999999999999,1.1861287999999999,0.14044164043374507
1.4609999999999999,1.1908120999999998,0.14118234592692652
1.4809999999999999,1.1961287999999999,0.14175613660353895
1.4709999999999999,1.2008120999999998,0.1425782426644188
1.4909999999999999,1.2061288,0.14276777793548945
1.4809999999999999,1.2108120999999998,0.1442789468081101
1.501,1.2161288,0.143322182941038
1.4909999999999999,1.2208120999999998,0.14577987024467692
1.511,1.2261288,0.1434044710361036
1.501,1.2308120999999999,0.14685684375325714
1.521,1.2361288,0.14308858313079725
1.511,1.2408120999999999,0.14744755888880298
1.531,1.2461288,0.14251559395875982
1.521,1.2508120999999999,0.14758344099092116
1.541,1.2561288,0.1418952793665734
1.531,1.2608120999999999,0.1473796550327773
1.551,1.2661288,0.14142632227072263
1.541,1.2708121,0.14700705802189545
1.561,1.2761288,0.14121637392263306
1.551,1.2808121,0.14658645540112164
1.571,1.2861288,0.14124826290900305
1.561,1.2908121,0.14617480831474705
1.581,1.2961288,0.14144596683400923
1.571,1.3008121,0.14578960305287153
1.591,1.3061288,0.1417312335451589
1.581,1.3108121,0.14542851126734183
1.601,1.3161288,0.14204443564062
1.591,1.3208121,0.14509442731578834
1.611,1.3261288,0.14235980990007327
1.601,1.3308121,0.14479720470816326
1.621,1.3361288,0.14266755464235414
1.611,1.3408121,0.14454748045970858
1.631,1.3461288,0.14295186714035985
1.621,1.3508121,0.14437241470737217
1.641,1.3561288,0.14320766681957228
1.631,1.3608121,0.1442766826011291
1.651,1.3661288,0.143433433916806
1.641,1.3708121,0.144261942302467
1.661,1.3761288,0.1436289390197536
1.651,1.3808121,0.14433711538280597
1.671,1.3861288,0.14378788964716266
1.661,1.3908121,0.14450541057051322
1.681,1.3961288,0.1438888353000511
1.671,1.4008121,0.14474703443695747
1.6909999999999998,1.4061287999999998,0.14391689607905223
1.681,1.4108121,0.14502055957965326
1.7009999999999998,1.4161287999999999,0.14386834342669744
1.6909999999999998,1.4208120999999998,0.14529139470742633
1.7109999999999999,1.4261287999999999,0.14375673090884616
1.7009999999999998,1.4308120999999998,0.14552651892895102
1.7209999999999999,1.4361287999999999,0.1435982691803195
1.7109999999999999,1.4408120999999998,0.14571033630056826
1.7309999999999999,1.4461287999999999,0.14341308999775718
1.7209999999999999,1.4508120999999998,0.1458263483390919
1.7409999999999999,1.4561288,0.14321142199962425
1.7309999999999999,1.4608120999999998,0.1458595255684466
1.751,1.4661288,0.14297857443639522
1.7409999999999999,1.4708120999999998,0.14578304294452007
1.761,1.4761288,0.14267545893367328
1.751,1.4808120999999999,0.14555659658367304
1.771,1.4861288,0.1422329634992178
1.761,1.4908120999999999,0.14512847971632958
1.781,1.4961288,0.1416775962217665
1.771,1.5008120999999999,0.1444187547744838
1.791,1.5061288,0.1412313315906326
1.781,1.5108120999999999,0.14350377886789634
1.801,1.5161288,0.14101759174351466
1.791,1.5208121,0.1427201507555359
1.811,1.5261288,0.14094891645524513
1.801,1.5308121,0.14225453066374727
1.821,1.5361288,0.14096726340416948
1.811,1.5408121,0.1419991602778924
1.831,1.5461288,0.14098414408792947
1.821,1.5508121,0.14188754101232617
1.841,1.5561288,0.14097134244335707
1.831,1.5608121,0.1418405029010217
1.851,1.5661288,0.14094027585501964
1.841,1.5708121,0.1418362951335177
1.861,1.5761288,0.14081940982201158
1.851,1.5808121,0.14191155588678644
1.871,1.5861288,0.1406889562311932
1.861,1.5908121,0.14198612032002494
1.881,1.5961288,0.14062498974638812
1.871,1.6008121,0.14209347149398655
1.891,1.6061288,0.14056474865083748
1.881,1.6108121,0.1422553262801102
1.901,1.6161288,0.1404789634079054
1.891,1.6208121,0.1423811765098276
1.911,1.6261288,0.14037170111207145
1.901,1.6308121,0.14243156386888636
1.921,1.6361288,0.1402417767890489
1.911,1.6408121,0.14239342162161597
1.931,1.6461288,0.14008808011411447
1.921,1.6508121,0.14222474075802907
1.9409999999999998,1.6561287999999998,0.13991552356498765
1.931,1.6608121,0.14189176785290025
1.9509999999999998,1.6661287999999999,0.1397368193724503
1.9409999999999998,1.6708120999999998,0.14142130792816038
1.9609999999999999,1.6761287999999999,0.1395627561548622
1.9509999999999998,1.6808120999999998,0.14086890410915487
1.9709999999999999,1.6861287999999999,0.13939872486950705
1.9609999999999999,1.6908120999999998,0.14028248712671776
1.9809999999999999,1.6961287999999999,0.1392498075635105
1.9709999999999999,1.7008120999999998,0.1396947497016916
1.9909999999999999,1.7061288,0.1391147755220731
1.9809999999999999,1.7108120999999998,0.13913056599748136
2.001,1.7161288,0.13898004194486657
1.9909999999999999,1.7208120999999998,0.13861328176029458
2.011,1.7261288000000001,0.13883066845265712
2.001,1.7308120999999999,0.1381555018983819
2.021,1.7361288,0.13865586265283375
2.011,1.7408121,0.1377702692522841
2.031,1.7461288000000001,0.1384519618459482
2.021,1.7508120999999999,0.1374749345947658
2.041,1.7561288,0.13822703693492297
2.031,1.7608121,0.1372861524477285
2.051,1.7661288000000002,0.13799408054479412
2.041,1.7708121,0.13721788939487764
2.061,1.7761288,0.13776824928563827
2.051,1.7808121000000001,0.13726126861533935
2.0709999999999997,1.7861287999999997,0.1375587554073299
2.061,1.7908121,0.13739604500076566
2.081,1.7961288,0.13736518962470667
2.0709999999999997,1.8008120999999997,0.13758442678761532
2.0909999999999997,1.8061287999999998,0.1371872720965412
2.081,1.8108121,0.13778737437702782
2.101,1.8161288,0.1370213422093372
2.0909999999999997,1.8208120999999997,0.1379728840710984
2.1109999999999998,1.8261287999999998,0.1368604250479189
2.101,1.8308121,0.13811965070739957
2.121,1.8361288,0.13670065461888659
2.1109999999999998,1.8408120999999997,0.13821326243376272
2.131,1.8461287999999998,0.13654433914077457
2.121,1.8508121,0.13824743136583612
2.141,1.8561288,0.13639558801519758
2.131,1.8608120999999997,0.13822387043001746
2.151,1.8661287999999998,0.13629492728467904
2.141,1.8708121,0.138198993063049
2.161,1.8761288,0.136307985138634
2.151,1.8808120999999998,0.13813952684145064
2.171,1.8861287999999998,0.13618837347473509
2.161,1.8908121,0.1379901495570617
2.181,1.8961288,0.13614084745069668
2.171,1.9008120999999998,0.1377484980428634
2.191,1.9061287999999998,0.13620126313092912
2.181,1.9108121,0.13753418106246396
2.201,1.9161288,0.13616999312999437
2.191,1.9208120999999998,0.13730241697627893
2.211,1.9261287999999999,0.13621608522037035
2.201,1.9308121,0.13711256523586565
2.221,1.9361288,0.1361908237647679
2.211,1.9408120999999998,0.1368958408180085
2.231,1.9461287999999999,0.13621623721434656
2.221,1.9508121,0.13672321930069956
2.241,1.9561288000000001,0.1362510066748279
2.231,1.9608120999999998,0.13652651111130698
2.251,1.9661288,0.13624680521064997
2.241,1.9708121,0.13639503168254913
2.261,1.9761288000000001,0.13620521732986327
2.251,1.9808120999999999,0.13626417159589357
2.261,1.9908121,0.1361053219967884
