tot_nrg/Ev,col_nrg/Ev,integral_cross_section/A^2
1.501,1.2161288,7.884613418211717e-08
1.511,1.2261288,3.0548171083640206e-07
1.521,1.2361288,8.149245406878706e-07
1.531,1.2461288,1.799889683492113e-06
1.541,1.2561288,3.56284993579894e-06
1.551,1.2661288,6.497078572276987e-06
1.561,1.2761288,1.1186124591916124e-05
1.571,1.2861288,1.8284702121422143e-05
1.581,1.2961288,2.8717735644007295e-05
1.591,1.3061288,4.3462814191916305e-05
1.601,1.3161288,6.348776871787199e-05
1.611,1.3261288,8.972700704417254e-05
1.621,1.3361288,0.0001230174200541377
1.631,1.3461288,0.0001636326596156984
1.641,1.3561288,0.00021135337005254853
1.651,1.3661288,0.0002657190357343971
1.661,1.3761288,0.00032544737543618266
1.671,1.3861288,0.00038914066253466635
1.681,1.3961288,0.00045506641890878614
1.6909999999999998,1.4061287999999998,0.0005217712661080503
1.7009999999999998,1.4161287999999999,0.0005881786526577027
1.7109999999999999,1.4261287999999999,0.0006531373312796499
1.7209999999999999,1.4361287999999999,0.0007160961230812779
1.7309999999999999,1.4461287999999999,0.0007760885161884745
1.7409999999999999,1.4561288,0.0008325577267492178
1.751,1.4661288,0.0008846284322880458
1.761,1.4761288,0.0009317484632908451
1.771,1.4861288,0.0009727566564149242
1.781,1.4961288,0.001006256681606044
1.791,1.5061288,0.001030902929703035
1.801,1.5161288,0.0010472004019357463
1.811,1.5261288,0.001057326444351639
1.821,1.5361288,0.0010636735676046133
1.831,1.5461288,0.0010677258293308092
1.841,1.5561288,0.0010703860215921124
1.851,1.5661288,0.001071501568261617
1.861,1.5761288,0.0010703708670460389
1.871,1.5861288,0.0010678028082060872
1.881,1.5961288,0.001066138523330268
1.891,1.6061288,0.0010671802596439234
1.901,1.6161288,0.0010719602131540704
1.911,1.6261288,0.0010802413051620638
1.921,1.6361288,0.0010907097788750795
1.931,1.6461288,0.0011023634506838688
1.9409999999999998,1.6561287999999998,0.0011149809058435746
1.9509999999999998,1.6661287999999999,0.001128587151566963
1.9609999999999999,1.6761287999999999,0.0011430346130102272
1.9709999999999999,1.6861287999999999,0.0011579891983934706
1.9809999999999999,1.6961287999999999,0.0011731409436831438
1.9909999999999999,1.7061288,0.0011876019472028358
2.001,1.7161288,0.0012000005644411608
2.011,1.7261288000000001,0.0012088950767551712
2.021,1.7361288,0.0012134632658787625
2.031,1.7461288000000001,0.0012140798383772828
2.041,1.7561288,0.0012122445861877933
2.051,1.7661288000000002,0.0012096648399182637
2.061,1.7761288,0.0012081465514496086
2.0709999999999997,1.7861287999999997,0.001208835687718358
2.081,1.7961288,0.001212206681201038
2.0909999999999997,1.8061287999999998,0.0012184279068197244
2.101,1.8161288,0.001227609627733385
2.1109999999999998,1.8261287999999998,0.0012398336797872008
2.121,1.8361288,0.0012548997856887659
2.131,1.8461287999999998,0.0012724971848905502
2.141,1.8561288,0.0012881652894072106
2.151,1.8661287999999998,0.0013111946131735676
2.161,1.8761288,0.0013334436589372306
2.171,1.8861287999999998,0.001357119270678355
2.181,1.8961288,0.0013836688139293137
2.191,1.9061287999999998,0.001411361063225443
2.201,1.9161288,0.0014455807613163237
2.211,1.9261287999999999,0.0014785419923322148
2.221,1.9361288,0.0015139825901010144
2.231,1.9461287999999999,0.0015513431971163037
2.241,1.9561288000000001,0.0015829912415496774
2.251,1.9661288,0.0016189024568442304
2.261,1.9761288000000001,0.0016530367524706206
