tot_nrg/Ev,col_nrg/Ev,integral_cross_section/A^2
0.831,0.5608120999999999,1.315424054404229e-07
0.841,0.5708120999999999,5.774187770479936e-07
0.851,0.5808120999999999,1.9375000492964473e-06
0.861,0.5908121,5.081741961770004e-06
0.871,0.6008121,1.1653346876215248e-05
0.8809999999999999,0.6108120999999999,2.4734758685330205e-05
0.8909999999999999,0.6208120999999999,4.9727918827713025e-05
0.9009999999999999,0.6308120999999999,9.62946174856707e-05
0.9109999999999999,0.6408120999999999,0.00018234118344778768
0.9209999999999999,0.6508120999999999,0.00033867875506195347
0.9309999999999999,0.6608120999999999,0.0006281668390852087
0.941,0.6708120999999999,0.001173371561348082
0.951,0.6808120999999999,0.0021984713350288437
0.961,0.6908120999999999,0.00404303603785131
0.971,0.7008120999999999,0.006885748685247294
0.981,0.7108121,0.010136476442836564
0.991,0.7208121,0.01288581356621111
1.001,0.7308120999999999,0.014731650518595946
1.011,0.7408120999999999,0.015935799161586533
1.021,0.7508120999999999,0.016672595925727847
1.031,0.7608120999999999,0.016985581807316123
1.041,0.7708120999999999,0.017301054527073395
1.051,0.7808120999999999,0.017737542016976342
1.061,0.7908120999999999,0.018101491726102373
1.071,0.8008120999999999,0.01855686661610017
1.081,0.8108120999999999,0.019317216110340395
1.091,0.8208120999999999,0.020275586609079212
1.101,0.8308120999999999,0.021144162100558715
1.111,0.8408121,0.0218123668275272
1.121,0.8508121,0.022291325563988586
1.131,0.8608121,0.022636607296747577
1.141,0.8708121,0.022838302075685674
1.151,0.8808121,0.022884150024085635
1.161,0.8908121,0.02274047530565128
1.171,0.9008121,0.02241065160278246
1.181,0.9108121,0.02191820711018833
1.1909999999999998,0.9208120999999998,0.021326028792586115
1.2009999999999998,0.9308120999999998,0.02072037304876612
1.2109999999999999,0.9408120999999998,0.02020046488524534
1.2209999999999999,0.9508120999999998,0.019834017858334822
1.2309999999999999,0.9608120999999998,0.01966959245976559
1.2409999999999999,0.9708120999999998,0.019712646939136932
1.251,0.9808120999999999,0.019958551916378787
1.261,0.9908120999999999,0.02037853644443914
1.271,1.0008120999999999,0.020939547854130776
1.281,1.0108120999999999,0.02160759635917477
1.291,1.0208121,0.022349895258119798
1.301,1.0308121,0.023142104477899335
1.311,1.0408121,0.023958391851674733
1.321,1.0508121,0.02477472316978729
1.331,1.0608121,0.02554778495193825
1.341,1.0708121,0.026185635150601416
1.351,1.0808121,0.026488049225876265
1.361,1.0908121,0.026277679883147564
1.371,1.1008121,0.025653879447433085
1.381,1.1108121,0.02486138245070918
1.391,1.1208121,0.024089524740152708
1.401,1.1308121,0.023463306378536986
1.411,1.1408121,0.022819046150281314
1.421,1.1508121,0.022241909903318514
1.431,1.1608121,0.02194874241487826
1.4409999999999998,1.1708120999999998,0.021644042945728754
1.4509999999999998,1.1808120999999998,0.021127128287818056
1.4609999999999999,1.1908120999999998,0.020758275981315407
1.4709999999999999,1.2008120999999998,0.020861274895768687
1.4809999999999999,1.2108120999999998,0.021304893761457114
1.4909999999999999,1.2208120999999998,0.021842690576470352
1.501,1.2308120999999999,0.02232502621475298
1.511,1.2408120999999999,0.022678027705980233
1.521,1.2508120999999999,0.022858703275249772
1.531,1.2608120999999999,0.02285394161855871
1.541,1.2708121,0.02269112284737295
1.551,1.2808121,0.022420955321487374
1.561,1.2908121,0.022093398129877345
1.571,1.3008121,0.0217424629901471
1.581,1.3108121,0.021391995648755033
1.591,1.3208121,0.02104606765078779
1.601,1.3308121,0.02071200924983116
1.611,1.3408121,0.02040267150303665
1.621,1.3508121,0.020127172486424736
1.631,1.3608121,0.01988215093135923
1.641,1.3708121,0.019663792707293883
1.651,1.3808121,0.01947794415965836
1.661,1.3908121,0.019334480241068694
1.671,1.4008121,0.019233557135287745
1.681,1.4108121,0.019162977920369632
1.6909999999999998,1.4208120999999998,0.019106613953506574
1.7009999999999998,1.4308120999999998,0.019045255879577887
1.7109999999999999,1.4408120999999998,0.018965738696166613
1.7209999999999999,1.4508120999999998,0.018858593571766967
1.7309999999999999,1.4608120999999998,0.018717961007198556
1.7409999999999999,1.4708120999999998,0.01854172307084378
1.751,1.4808120999999999,0.01832485442237912
1.761,1.4908120999999999,0.018060266433142638
1.771,1.5008120999999999,0.017730791539038285
1.781,1.5108120999999999,0.017333449619675277
1.791,1.5208121,0.01692135417631646
1.801,1.5308121,0.016564747893857954
1.811,1.5408121,0.01626261622871693
1.821,1.5508121,0.016034358295367222
1.831,1.5608121,0.015813245099713276
1.841,1.5708121,0.015613624813896847
1.851,1.5808121,0.015465464398796328
1.861,1.5908121,0.015325622755261746
1.871,1.6008121,0.015239000437762605
1.881,1.6108121,0.01521821183938266
1.891,1.6208121,0.015193695135822414
1.901,1.6308121,0.015123324115914888
1.911,1.6408121,0.015001556509778658
1.921,1.6508121,0.014843301949618868
1.931,1.6608121,0.014667027050941089
1.9409999999999998,1.6708120999999998,0.014484444430677113
1.9509999999999998,1.6808120999999998,0.014301642079679178
1.9609999999999999,1.6908120999999998,0.014123907291025648
1.9709999999999999,1.7008120999999998,0.013956157557331947
1.9809999999999999,1.7108120999999998,0.013796452296574616
1.9909999999999999,1.7208120999999998,0.013646631157442154
2.001,1.7308120999999999,0.013511783947153029
2.011,1.7408121,0.013391424849233023
2.021,1.7508120999999999,0.013284223260626888
2.031,1.7608121,0.013192581497518055
2.041,1.7708121,0.013117519658698163
2.051,1.7808121000000001,0.013054271961894539
2.061,1.7908121,0.013001128239321931
2.0709999999999997,1.8008120999999997,0.012956210977844074
2.081,1.8108121,0.0129180834503461
2.0909999999999997,1.8208120999999997,0.012885016298769512
2.101,1.8308121,0.012853875911082445
2.1109999999999998,1.8408120999999997,0.012821814745410005
2.121,1.8508121,0.012788380033356719
2.131,1.8608120999999997,0.012752673689183387
2.141,1.8708121,0.01272429946454543
2.151,1.8808120999999998,0.012729395440131751
2.161,1.8908121,0.0127408109735107
2.171,1.9008120999999998,0.012712707145525382
2.181,1.9108121,0.012696429265169768
2.191,1.9208120999999998,0.012741733285368161
2.201,1.9308121,0.012725045737856717
2.211,1.9408120999999998,0.012725377596240664
2.221,1.9508121,0.012725736952859034
2.231,1.9608120999999998,0.012727085297789136
2.241,1.9708121,0.012730187956260684
2.251,1.9808120999999999,0.01272870013927883
2.261,1.9908121,0.012681494973121689
