forrtl: No such file or directory
forrtl: severe (28): CLOSE error, unit 10, file "Unknown"
Image              PC                Routine            Line        Source             
libifcore.so.5     00002BA6CCFE7A28  Unknown               Unknown  Unknown
libifcore.so.5     00002BA6CCFD916F  Unknown               Unknown  Unknown
abc.x              0000000000402EE6  MAIN__                    131  abc.f
abc.x              000000000040173E  Unknown               Unknown  Unknown
libc.so.6          000000314321ED5D  Unknown               Unknown  Unknown
abc.x              0000000000401649  Unknown               Unknown  Unknown
