 Channel       a       v       j       k       cha_nrg 
        1       1       0       1       1   0.2848712E+00
        2       1       0       3       1   0.3576187E+00
        3       1       0       3       2   0.3576187E+00
        4       1       0       3       3   0.3576187E+00
        5       1       0       5       1   0.4858414E+00
        6       1       0       5       2   0.4858414E+00
        7       1       0       5       3   0.4858414E+00
        8       1       0       5       4   0.4858414E+00
        9       1       0       5       5   0.4858414E+00
       10       1       0       7       1   0.6652011E+00
       11       1       0       7       2   0.6652011E+00
       12       1       0       7       3   0.6652011E+00
       13       1       0       7       4   0.6652011E+00
       14       1       0       7       5   0.6652011E+00
       15       1       0       9       1   0.8900749E+00
       16       1       0       9       2   0.8900749E+00
       17       1       0       9       3   0.8900749E+00
       18       1       0       9       4   0.8900749E+00
       19       1       0       9       5   0.8900749E+00
       20       1       0      11       1   0.1154071E+01
       21       1       0      11       2   0.1154071E+01
       22       1       0      11       3   0.1154071E+01
       23       1       0      11       4   0.1154071E+01
       24       1       0      11       5   0.1154071E+01
       25       1       0      13       1   0.1450502E+01
       26       1       0      13       2   0.1450502E+01
       27       1       0      13       3   0.1450502E+01
       28       1       0      13       4   0.1450502E+01
       29       1       0      13       5   0.1450502E+01
       30       1       0      15       1   0.1772762E+01
       31       1       0      15       2   0.1772762E+01
       32       1       0      15       3   0.1772762E+01
       33       1       0      15       4   0.1772762E+01
       34       1       0      15       5   0.1772762E+01
       35       1       0      17       1   0.2114580E+01
       36       1       0      17       2   0.2114580E+01
       37       1       0      17       3   0.2114580E+01
       38       1       0      17       4   0.2114580E+01
       39       1       0      17       5   0.2114580E+01
       40       1       1       1       1   0.8000498E+00
       41       1       1       3       1   0.8691571E+00
       42       1       1       3       2   0.8691571E+00
       43       1       1       3       3   0.8691571E+00
       44       1       1       5       1   0.9909192E+00
       45       1       1       5       2   0.9909192E+00
       46       1       1       5       3   0.9909192E+00
       47       1       1       5       4   0.9909192E+00
       48       1       1       5       5   0.9909192E+00
       49       1       1       7       1   0.1161149E+01
       50       1       1       7       2   0.1161149E+01
       51       1       1       7       3   0.1161149E+01
       52       1       1       7       4   0.1161149E+01
       53       1       1       7       5   0.1161149E+01
       54       1       1       9       1   0.1374425E+01
       55       1       1       9       2   0.1374425E+01
       56       1       1       9       3   0.1374425E+01
       57       1       1       9       4   0.1374425E+01
       58       1       1       9       5   0.1374425E+01
       59       1       1      11       1   0.1624592E+01
       60       1       1      11       2   0.1624592E+01
       61       1       1      11       3   0.1624592E+01
       62       1       1      11       4   0.1624592E+01
       63       1       1      11       5   0.1624592E+01
       64       1       1      13       1   0.1905213E+01
       65       1       1      13       2   0.1905213E+01
       66       1       1      13       3   0.1905213E+01
       67       1       1      13       4   0.1905213E+01
       68       1       1      13       5   0.1905213E+01
       69       1       1      15       1   0.2209922E+01
       70       1       1      15       2   0.2209922E+01
       71       1       1      15       3   0.2209922E+01
       72       1       1      15       4   0.2209922E+01
       73       1       1      15       5   0.2209922E+01
       74       1       2       1       1   0.1286052E+01
       75       1       2       3       1   0.1351598E+01
       76       1       2       3       2   0.1351598E+01
       77       1       2       3       3   0.1351598E+01
       78       1       2       5       1   0.1467037E+01
       79       1       2       5       2   0.1467037E+01
       80       1       2       5       3   0.1467037E+01
       81       1       2       5       4   0.1467037E+01
       82       1       2       5       5   0.1467037E+01
       83       1       2       7       1   0.1628324E+01
       84       1       2       7       2   0.1628324E+01
       85       1       2       7       3   0.1628324E+01
       86       1       2       7       4   0.1628324E+01
       87       1       2       7       5   0.1628324E+01
       88       1       2       9       1   0.1830224E+01
       89       1       2       9       2   0.1830224E+01
       90       1       2       9       3   0.1830224E+01
       91       1       2       9       4   0.1830224E+01
       92       1       2       9       5   0.1830224E+01
       93       1       2      11       1   0.2066797E+01
       94       1       2      11       2   0.2066797E+01
       95       1       2      11       3   0.2066797E+01
       96       1       2      11       4   0.2066797E+01
       97       1       2      11       5   0.2066797E+01
       98       1       2      13       1   0.2331829E+01
       99       1       2      13       2   0.2331829E+01
      100       1       2      13       3   0.2331829E+01
      101       1       2      13       4   0.2331829E+01
      102       1       2      13       5   0.2331829E+01
      103       1       3       1       1   0.1743492E+01
      104       1       3       3       1   0.1805530E+01
      105       1       3       3       2   0.1805530E+01
      106       1       3       3       3   0.1805530E+01
      107       1       3       5       1   0.1914737E+01
      108       1       3       5       2   0.1914737E+01
      109       1       3       5       3   0.1914737E+01
      110       1       3       5       4   0.1914737E+01
      111       1       3       5       5   0.1914737E+01
      112       1       3       7       1   0.2067198E+01
      113       1       3       7       2   0.2067198E+01
      114       1       3       7       3   0.2067198E+01
      115       1       3       7       4   0.2067198E+01
      116       1       3       7       5   0.2067198E+01
      117       1       3       9       1   0.2257849E+01
      118       1       3       9       2   0.2257849E+01
      119       1       3       9       3   0.2257849E+01
      120       1       3       9       4   0.2257849E+01
      121       1       3       9       5   0.2257849E+01
      122       1       3      11       1   0.2480944E+01
      123       1       3      11       2   0.2480944E+01
      124       1       3      11       3   0.2480944E+01
      125       1       3      11       4   0.2480944E+01
      126       1       3      11       5   0.2480944E+01
      127       1       4       1       1   0.2172748E+01
      128       1       4       3       1   0.2231304E+01
      129       1       4       3       2   0.2231304E+01
      130       1       4       3       3   0.2231304E+01
      131       1       4       5       1   0.2334316E+01
      132       1       4       5       2   0.2334316E+01
      133       1       4       5       3   0.2334316E+01
      134       1       4       5       4   0.2334316E+01
      135       1       4       5       5   0.2334316E+01
      136       1       4       7       1   0.2477990E+01
      137       1       4       7       2   0.2477990E+01
      138       1       4       7       3   0.2477990E+01
      139       1       4       7       4   0.2477990E+01
      140       1       4       7       5   0.2477990E+01
      141       2       0       1       1   0.2848712E+00
      142       2       0       2       1   0.3141031E+00
      143       2       0       2       2   0.3141031E+00
      144       2       0       3       1   0.3576187E+00
      145       2       0       3       2   0.3576187E+00
      146       2       0       3       3   0.3576187E+00
      147       2       0       4       1   0.4150307E+00
      148       2       0       4       2   0.4150307E+00
      149       2       0       4       3   0.4150307E+00
      150       2       0       4       4   0.4150307E+00
      151       2       0       5       1   0.4858414E+00
      152       2       0       5       2   0.4858414E+00
      153       2       0       5       3   0.4858414E+00
      154       2       0       5       4   0.4858414E+00
      155       2       0       5       5   0.4858414E+00
      156       2       0       6       1   0.5694565E+00
      157       2       0       6       2   0.5694565E+00
      158       2       0       6       3   0.5694565E+00
      159       2       0       6       4   0.5694565E+00
      160       2       0       6       5   0.5694565E+00
      161       2       0       7       1   0.6652011E+00
      162       2       0       7       2   0.6652011E+00
      163       2       0       7       3   0.6652011E+00
      164       2       0       7       4   0.6652011E+00
      165       2       0       7       5   0.6652011E+00
      166       2       0       8       1   0.7723361E+00
      167       2       0       8       2   0.7723361E+00
      168       2       0       8       3   0.7723361E+00
      169       2       0       8       4   0.7723361E+00
      170       2       0       8       5   0.7723361E+00
      171       2       0       9       1   0.8900749E+00
      172       2       0       9       2   0.8900749E+00
      173       2       0       9       3   0.8900749E+00
      174       2       0       9       4   0.8900749E+00
      175       2       0       9       5   0.8900749E+00
      176       2       0      10       1   0.1017599E+01
      177       2       0      10       2   0.1017599E+01
      178       2       0      10       3   0.1017599E+01
      179       2       0      10       4   0.1017599E+01
      180       2       0      10       5   0.1017599E+01
      181       2       0      11       1   0.1154071E+01
      182       2       0      11       2   0.1154071E+01
      183       2       0      11       3   0.1154071E+01
      184       2       0      11       4   0.1154071E+01
      185       2       0      11       5   0.1154071E+01
      186       2       0      12       1   0.1298651E+01
      187       2       0      12       2   0.1298651E+01
      188       2       0      12       3   0.1298651E+01
      189       2       0      12       4   0.1298651E+01
      190       2       0      12       5   0.1298651E+01
      191       2       0      13       1   0.1450502E+01
      192       2       0      13       2   0.1450502E+01
      193       2       0      13       3   0.1450502E+01
      194       2       0      13       4   0.1450502E+01
      195       2       0      13       5   0.1450502E+01
      196       2       0      14       1   0.1608806E+01
      197       2       0      14       2   0.1608806E+01
      198       2       0      14       3   0.1608806E+01
      199       2       0      14       4   0.1608806E+01
      200       2       0      14       5   0.1608806E+01
      201       2       0      15       1   0.1772762E+01
      202       2       0      15       2   0.1772762E+01
      203       2       0      15       3   0.1772762E+01
      204       2       0      15       4   0.1772762E+01
      205       2       0      15       5   0.1772762E+01
      206       2       0      16       1   0.1941600E+01
      207       2       0      16       2   0.1941600E+01
      208       2       0      16       3   0.1941600E+01
      209       2       0      16       4   0.1941600E+01
      210       2       0      16       5   0.1941600E+01
      211       2       0      17       1   0.2114580E+01
      212       2       0      17       2   0.2114580E+01
      213       2       0      17       3   0.2114580E+01
      214       2       0      17       4   0.2114580E+01
      215       2       0      17       5   0.2114580E+01
      216       2       0      18       1   0.2290996E+01
      217       2       0      18       2   0.2290996E+01
      218       2       0      18       3   0.2290996E+01
      219       2       0      18       4   0.2290996E+01
      220       2       0      18       5   0.2290996E+01
      221       2       1       1       1   0.8000498E+00
      222       2       1       2       1   0.8278212E+00
      223       2       1       2       2   0.8278212E+00
      224       2       1       3       1   0.8691571E+00
      225       2       1       3       2   0.8691571E+00
      226       2       1       3       3   0.8691571E+00
      227       2       1       4       1   0.9236833E+00
      228       2       1       4       2   0.9236833E+00
      229       2       1       4       3   0.9236833E+00
      230       2       1       4       4   0.9236833E+00
      231       2       1       5       1   0.9909192E+00
      232       2       1       5       2   0.9909192E+00
      233       2       1       5       3   0.9909192E+00
      234       2       1       5       4   0.9909192E+00
      235       2       1       5       5   0.9909192E+00
      236       2       1       6       1   0.1070291E+01
      237       2       1       6       2   0.1070291E+01
      238       2       1       6       3   0.1070291E+01
      239       2       1       6       4   0.1070291E+01
      240       2       1       6       5   0.1070291E+01
      241       2       1       7       1   0.1161149E+01
      242       2       1       7       2   0.1161149E+01
      243       2       1       7       3   0.1161149E+01
      244       2       1       7       4   0.1161149E+01
      245       2       1       7       5   0.1161149E+01
      246       2       1       8       1   0.1262779E+01
      247       2       1       8       2   0.1262779E+01
      248       2       1       8       3   0.1262779E+01
      249       2       1       8       4   0.1262779E+01
      250       2       1       8       5   0.1262779E+01
      251       2       1       9       1   0.1374425E+01
      252       2       1       9       2   0.1374425E+01
      253       2       1       9       3   0.1374425E+01
      254       2       1       9       4   0.1374425E+01
      255       2       1       9       5   0.1374425E+01
      256       2       1      10       1   0.1495298E+01
      257       2       1      10       2   0.1495298E+01
      258       2       1      10       3   0.1495298E+01
      259       2       1      10       4   0.1495298E+01
      260       2       1      10       5   0.1495298E+01
      261       2       1      11       1   0.1624592E+01
      262       2       1      11       2   0.1624592E+01
      263       2       1      11       3   0.1624592E+01
      264       2       1      11       4   0.1624592E+01
      265       2       1      11       5   0.1624592E+01
      266       2       1      12       1   0.1761499E+01
      267       2       1      12       2   0.1761499E+01
      268       2       1      12       3   0.1761499E+01
      269       2       1      12       4   0.1761499E+01
      270       2       1      12       5   0.1761499E+01
      271       2       1      13       1   0.1905213E+01
      272       2       1      13       2   0.1905213E+01
      273       2       1      13       3   0.1905213E+01
      274       2       1      13       4   0.1905213E+01
      275       2       1      13       5   0.1905213E+01
      276       2       1      14       1   0.2054944E+01
      277       2       1      14       2   0.2054944E+01
      278       2       1      14       3   0.2054944E+01
      279       2       1      14       4   0.2054944E+01
      280       2       1      14       5   0.2054944E+01
      281       2       1      15       1   0.2209922E+01
      282       2       1      15       2   0.2209922E+01
      283       2       1      15       3   0.2209922E+01
      284       2       1      15       4   0.2209922E+01
      285       2       1      15       5   0.2209922E+01
      286       2       1      16       1   0.2369400E+01
      287       2       1      16       2   0.2369400E+01
      288       2       1      16       3   0.2369400E+01
      289       2       1      16       4   0.2369400E+01
      290       2       1      16       5   0.2369400E+01
      291       2       2       1       1   0.1286052E+01
      292       2       2       2       1   0.1312395E+01
      293       2       2       2       2   0.1312395E+01
      294       2       2       3       1   0.1351598E+01
      295       2       2       3       2   0.1351598E+01
      296       2       2       3       3   0.1351598E+01
      297       2       2       4       1   0.1403301E+01
      298       2       2       4       2   0.1403301E+01
      299       2       2       4       3   0.1403301E+01
      300       2       2       4       4   0.1403301E+01
      301       2       2       5       1   0.1467037E+01
      302       2       2       5       2   0.1467037E+01
      303       2       2       5       3   0.1467037E+01
      304       2       2       5       4   0.1467037E+01
      305       2       2       5       5   0.1467037E+01
      306       2       2       6       1   0.1542255E+01
      307       2       2       6       2   0.1542255E+01
      308       2       2       6       3   0.1542255E+01
      309       2       2       6       4   0.1542255E+01
      310       2       2       6       5   0.1542255E+01
      311       2       2       7       1   0.1628324E+01
      312       2       2       7       2   0.1628324E+01
      313       2       2       7       3   0.1628324E+01
      314       2       2       7       4   0.1628324E+01
      315       2       2       7       5   0.1628324E+01
      316       2       2       8       1   0.1724557E+01
      317       2       2       8       2   0.1724557E+01
      318       2       2       8       3   0.1724557E+01
      319       2       2       8       4   0.1724557E+01
      320       2       2       8       5   0.1724557E+01
      321       2       2       9       1   0.1830224E+01
      322       2       2       9       2   0.1830224E+01
      323       2       2       9       3   0.1830224E+01
      324       2       2       9       4   0.1830224E+01
      325       2       2       9       5   0.1830224E+01
      326       2       2      10       1   0.1944563E+01
      327       2       2      10       2   0.1944563E+01
      328       2       2      10       3   0.1944563E+01
      329       2       2      10       4   0.1944563E+01
      330       2       2      10       5   0.1944563E+01
      331       2       2      11       1   0.2066797E+01
      332       2       2      11       2   0.2066797E+01
      333       2       2      11       3   0.2066797E+01
      334       2       2      11       4   0.2066797E+01
      335       2       2      11       5   0.2066797E+01
      336       2       2      12       1   0.2196145E+01
      337       2       2      12       2   0.2196145E+01
      338       2       2      12       3   0.2196145E+01
      339       2       2      12       4   0.2196145E+01
      340       2       2      12       5   0.2196145E+01
      341       2       2      13       1   0.2331829E+01
      342       2       2      13       2   0.2331829E+01
      343       2       2      13       3   0.2331829E+01
      344       2       2      13       4   0.2331829E+01
      345       2       2      13       5   0.2331829E+01
      346       2       2      14       1   0.2473083E+01
      347       2       2      14       2   0.2473083E+01
      348       2       2      14       3   0.2473083E+01
      349       2       2      14       4   0.2473083E+01
      350       2       2      14       5   0.2473083E+01
      351       2       3       1       1   0.1743492E+01
      352       2       3       2       1   0.1768428E+01
      353       2       3       2       2   0.1768428E+01
      354       2       3       3       1   0.1805530E+01
      355       2       3       3       2   0.1805530E+01
      356       2       3       3       3   0.1805530E+01
      357       2       3       4       1   0.1854450E+01
      358       2       3       4       2   0.1854450E+01
      359       2       3       4       3   0.1854450E+01
      360       2       3       4       4   0.1854450E+01
      361       2       3       5       1   0.1914737E+01
      362       2       3       5       2   0.1914737E+01
      363       2       3       5       3   0.1914737E+01
      364       2       3       5       4   0.1914737E+01
      365       2       3       5       5   0.1914737E+01
      366       2       3       6       1   0.1985856E+01
      367       2       3       6       2   0.1985856E+01
      368       2       3       6       3   0.1985856E+01
      369       2       3       6       4   0.1985856E+01
      370       2       3       6       5   0.1985856E+01
      371       2       3       7       1   0.2067198E+01
      372       2       3       7       2   0.2067198E+01
      373       2       3       7       3   0.2067198E+01
      374       2       3       7       4   0.2067198E+01
      375       2       3       7       5   0.2067198E+01
      376       2       3       8       1   0.2158098E+01
      377       2       3       8       2   0.2158098E+01
      378       2       3       8       3   0.2158098E+01
      379       2       3       8       4   0.2158098E+01
      380       2       3       8       5   0.2158098E+01
      381       2       3       9       1   0.2257849E+01
      382       2       3       9       2   0.2257849E+01
      383       2       3       9       3   0.2257849E+01
      384       2       3       9       4   0.2257849E+01
      385       2       3       9       5   0.2257849E+01
      386       2       3      10       1   0.2365715E+01
      387       2       3      10       2   0.2365715E+01
      388       2       3      10       3   0.2365715E+01
      389       2       3      10       4   0.2365715E+01
      390       2       3      10       5   0.2365715E+01
      391       2       3      11       1   0.2480944E+01
      392       2       3      11       2   0.2480944E+01
      393       2       3      11       3   0.2480944E+01
      394       2       3      11       4   0.2480944E+01
      395       2       3      11       5   0.2480944E+01
      396       2       4       1       1   0.2172748E+01
      397       2       4       2       1   0.2196287E+01
      398       2       4       2       2   0.2196287E+01
      399       2       4       3       1   0.2231304E+01
      400       2       4       3       2   0.2231304E+01
      401       2       4       3       3   0.2231304E+01
      402       2       4       4       1   0.2277459E+01
      403       2       4       4       2   0.2277459E+01
      404       2       4       4       3   0.2277459E+01
      405       2       4       4       4   0.2277459E+01
      406       2       4       5       1   0.2334316E+01
      407       2       4       5       2   0.2334316E+01
      408       2       4       5       3   0.2334316E+01
      409       2       4       5       4   0.2334316E+01
      410       2       4       5       5   0.2334316E+01
      411       2       4       6       1   0.2401356E+01
      412       2       4       6       2   0.2401356E+01
      413       2       4       6       3   0.2401356E+01
      414       2       4       6       4   0.2401356E+01
      415       2       4       6       5   0.2401356E+01
      416       2       4       7       1   0.2477990E+01
      417       2       4       7       2   0.2477990E+01
      418       2       4       7       3   0.2477990E+01
      419       2       4       7       4   0.2477990E+01
      420       2       4       7       5   0.2477990E+01
