  mass1    1.008
  mass2    1.008
  mass3    1.008
  jtot        6
  ipar       -1
  jpar       -1
  jmax       18
  kmin        1
  kmax        6
  rmax   25.000
   mtr     1000
  emax    2.500
  enrg    0.271
  dnrg    0.010
  nnrg      200
  nout        0
  jout        1
